0.340346	2.40917
0.395355	2.58484
0.495097	1.67415
0.595205	2.40829
0.693352	1.8183
0.795151	2.66622
0.895366	3.88657
0.997553	6.48277
0.997686	7.08277
1.09436	7.34105
1.0978	7.83759
1.14948	8.04431
1.09787	8.16863
1.09802	8.8307
1.19794	8.71656
1.1963	8.85105
1.24621	8.57156
1.2976	7.42311
1.34558	5.99536
1.39526	4.67105
1.49494	3.46036
1.59467	2.50829
1.79751	0.780009
2.00063	0.334481
2.24719	0.478458
2.49699	0.187941
2.74351	0.135367