
0.08620689655172419918,0.00000000000000000000,0.00000000000000000000
0.08620689655172419918,0.00514360595296205116,0.00603448275862070171
0.08620689655172419918,0.01010115764882259584,0.01206896551724137567
0.08620689655172419918,0.01487426691411465780,0.01810344827586207739
0.08620689655172419918,0.01946417809559524564,0.02413793103448275135
0.08620689655172419918,0.02387184236739125359,0.03017241379310345306
0.08620689655172419918,0.02809797906584296165,0.03620689655172412702
0.08620689655172419918,0.03214312593156860853,0.04224137931034482873
0.08620689655172419918,0.03600767992608320395,0.04827586206896553045
0.08620689655172419918,0.03969193009473399175,0.05431034482758620441
0.08620689655172419918,0.04319608376808185823,0.06034482758620690612
0.08620689655172419918,0.04652028722948819278,0.06637931034482759396
0.08620689655172419918,0.04966464182687863049,0.07241379310344829567
0.08620689655172419918,0.05262921637077247472,0.07844827586206896963
0.08620689655172419918,0.05541405653801044495,0.08448275862068965747
0.08620689655172419918,0.05801919189050527143,0.09051724137931035918
0.08620689655172419918,0.06044464102010149720,0.09655172413793104702
0.08620689655172419918,0.06269041524358502648,0.10258620689655172098
0.08620689655172419918,0.06475652119534924811,0.10862068965517242269
0.08620689655172419918,0.06664296259852697801,0.11465517241379311053
0.08620689655172419918,0.06834974143785717271,0.12068965517241381225
0.08620689655172419918,0.06987685870849107139,0.12672413793103448620
0.08620689655172419918,0.07122431487368253988,0.13275862068965518792
0.08620689655172419918,0.07239211013016486063,0.13879310344827586188
0.08620689655172419918,0.07338024455232133869,0.14482758620689656359
0.08620689655172419918,0.07418871816432502653,0.15086206896551723755
0.08620689655172419918,0.07481753097257888563,0.15689655172413796702
0.08620689655172419918,0.07526668297835323318,0.16293103448275864098
0.08620689655172419918,0.07553617418181152177,0.16896551724137931494
0.08620689655172419918,0.07562600458296422912,0.17500000000000001665

0.17241379310344839837,0.00000000000000000000,0.00000000000000000000
0.17241379310344839837,0.00894409761264001839,0.00603448275862070171
0.17241379310344839837,0.01749721788632872116,0.01206896551724137567
0.17241379310344839837,0.02568165857993027698,0.01810344827586207739
0.17241379310344839837,0.03351463379394693798,0.02413793103448275135
0.17241379310344839837,0.04100930192407750696,0.03017241379310345306
0.17241379310344839837,0.04817561415795286461,0.03620689655172412702
0.17241379310344839837,0.05502100951608213802,0.04224137931034482873
0.17241379310344839837,0.06155097950264374479,0.04827586206896553045
0.17241379310344839837,0.06776952272624801876,0.05431034482758620441
0.17241379310344839837,0.07367950736579463589,0.06034482758620690612
0.17241379310344839837,0.07928295708267103781,0.06637931034482759396
0.17241379310344839837,0.08458127390839906279,0.07241379310344829567
0.17241379310344839837,0.08957540975705606534,0.07844827586206896963
0.17241379310344839837,0.09426599651498912547,0.08448275862068965747
0.17241379310344839837,0.09865344313712452740,0.09051724137931035918
0.17241379310344839837,0.10273800682016355490,0.09655172413793104702
0.17241379310344839837,0.10651984411877134240,0.10258620689655172098
0.17241379310344839837,0.10999904681211884749,0.10862068965517242269
0.17241379310344839837,0.11317566640545045908,0.11465517241379311053
0.17241379310344839837,0.11604973035533661108,0.12068965517241381225
0.17241379310344839837,0.11862125242854651419,0.12672413793103448620
0.17241379310344839837,0.12089023903366197255,0.13275862068965518792
0.17241379310344839837,0.12285669289226097689,0.13879310344827586188
0.17241379310344839837,0.12452061503335080939,0.14482758620689656359
0.17241379310344839837,0.12588200579133709822,0.15086206896551723755
0.17241379310344839837,0.12694086525479825189,0.15689655172413796702
0.17241379310344839837,0.12769719344130717187,0.16293103448275864098
0.17241379310344839837,0.12815099035312513265,0.16896551724137931494
0.17241379310344839837,0.12830225599039690731,0.17500000000000001665

0.25862068965517237551,0.00000000000000000000,0.00000000000000000000
0.25862068965517237551,0.01222612922945174284,0.00603448275862070171
0.25862068965517237551,0.02368742896603746179,0.01206896551724137567
0.25862068965517237551,0.03448096464047183118,0.01810344827586207739
0.25862068965517237551,0.04468167176935970708,0.02413793103448275135
0.25862068965517237551,0.05434683078854222332,0.03017241379310345306
0.25862068965517237551,0.06351976068444310786,0.03620689655172412702
0.25862068965517237551,0.07223284460974646604,0.04224137931034482873
0.25862068965517237551,0.08050998789151232737,0.04827586206896553045
0.25862068965517237551,0.08836859706236058210,0.05431034482758620441
0.25862068965517237551,0.09582115772777111129,0.06034482758620690612
0.25862068965517237551,0.10287647918402292868,0.06637931034482759396
0.25862068965517237551,0.10954066468097059528,0.07241379310344829567
0.25862068965517237551,0.11581785804089154979,0.07844827586206896963
0.25862068965517237551,0.12171080995818615855,0.08448275862068965747
0.25862068965517237551,0.12722130067392248276,0.09051724137931035918
0.25862068965517237551,0.13235044980324864317,0.09655172413793104702
0.25862068965517237551,0.13709893885169593952,0.10258620689655172098
0.25862068965517237551,0.14146716734752234901,0.10862068965517242269
0.25862068965517237551,0.14545535950064802933,0.11465517241379311053
0.25862068965517237551,0.14906363483357065736,0.12068965517241381225
0.25862068965517237551,0.15229205327506581402,0.12672413793103448620
0.25862068965517237551,0.15514064272263439204,0.13275862068965518792
0.25862068965517237551,0.15760941502370667822,0.13879310344827586188
0.25862068965517237551,0.15969837465770300722,0.14482758620689656359
0.25862068965517237551,0.16140752308034042595,0.15086206896551723755
0.25862068965517237551,0.16273686067721349069,0.15689655172413796702
0.25862068965517237551,0.16368638752481995402,0.16293103448275864098
0.25862068965517237551,0.16425610363300346961,0.16896551724137931494
0.25862068965517237551,0.16444600900239414454,0.17500000000000001665

0.34482758620689657469,0.00000000000000000000,0.00000000000000000000
0.34482758620689657469,0.01572984786433627782,0.00603448275862070171
0.34482758620689657469,0.03000045800631777684,0.01206896551724137567
0.34482758620689657469,0.04307406272059413621,0.01810344827586207739
0.34482758620689657469,0.05515310805129630678,0.02413793103448275135
0.34482758620689657469,0.06639234301688079487,0.03017241379310345306
0.34482758620689657469,0.07690879833701953772,0.03620689655172412702
0.34482758620689657469,0.08678996044610842731,0.04224137931034482873
0.34482758620689657469,0.09610041205627438410,0.04827586206896553045
0.34482758620689657469,0.10488717871468888898,0.05431034482758620441
0.34482758620689657469,0.11318399157518266307,0.06034482758620690612
0.34482758620689657469,0.12101464986226335985,0.06637931034482759396
0.34482758620689657469,0.12839564213630080824,0.07241379310344829567
0.34482758620689657469,0.13533816336152115767,0.07844827586206896963
0.34482758620689657469,0.14184964482318396239,0.08448275862068965747
0.34482758620689657469,0.14793489602655671145,0.09051724137931035918
0.34482758620689657469,0.15359694172769561282,0.09655172413793104702
0.34482758620689657469,0.15883762308424032028,0.10258620689655172098
0.34482758620689657469,0.16365801946307856340,0.10862068965517242269
0.34482758620689657469,0.16805873659048603530,0.11465517241379311053
0.34482758620689657469,0.17204009736884523507,0.12068965517241381225
0.34482758620689657469,0.17560226370193804390,0.12672413793103448620
0.34482758620689657469,0.17874531095774698342,0.13275862068965518792
0.34482758620689657469,0.18146927114332955799,0.13879310344827586188
0.34482758620689657469,0.18377415636030289270,0.14482758620689656359
0.34482758620689657469,0.18565997054143712486,0.15086206896551723755
0.34482758620689657469,0.18712671472845562870,0.15689655172413796702
0.34482758620689657469,0.18817438912802517126,0.16293103448275864098
0.34482758620689657469,0.18880299376673925771,0.16896551724137931494
0.34482758620689657469,0.18901252864630030404,0.17500000000000001665

0.43103448275862077388,0.00000000000000000000,0.00000000000000000000
0.43103448275862077388,0.01999683418262463916,0.00603448275862070171
0.43103448275862077388,0.03741062033466086706,0.01206896551724137567
0.43103448275862077388,0.05278512334229414071,0.01810344827586207739
0.43103448275862077388,0.06654013532263439168,0.02413793103448275135
0.43103448275862077388,0.07899654384035301180,0.03017241379310345306
0.43103448275862077388,0.09039702379576181057,0.03620689655172412702
0.43103448275862077388,0.10092298705922396473,0.04224137931034482873
0.43103448275862077388,0.11070835234260603674,0.04827586206896553045
0.43103448275862077388,0.11985063182052267672,0.05431034482758620441
0.43103448275862077388,0.12841977041355737144,0.06034482758620690612
0.43103448275862077388,0.13646511819364903761,0.06637931034482759396
0.43103448275862077388,0.14402086583958070842,0.07241379310344829567
0.43103448275862077388,0.15111022722917161198,0.07844827586206896963
0.43103448275862077388,0.15774861187553607111,0.08448275862068965747
0.43103448275862077388,0.16394599276879662231,0.09051724137931035918
0.43103448275862077388,0.16970864204311156276,0.09655172413793104702
0.43103448275862077388,0.17504037752296250363,0.10258620689655172098
0.43103448275862077388,0.17994343738352755468,0.10862068965517242269
0.43103448275862077388,0.18441907765881221382,0.11465517241379311053
0.43103448275862077388,0.18846796791919684377,0.12068965517241381225
0.43103448275862077388,0.19209044388836343797,0.12672413793103448620
0.43103448275862077388,0.19528666184936074868,0.13275862068965518792
0.43103448275862077388,0.19805668817202304322,0.13879310344827586188
0.43103448275862077388,0.20040054795026360224,0.14482758620689656359
0.43103448275862077388,0.20231824933907466280,0.15086206896551723755
0.43103448275862077388,0.20380979449857375418,0.15689655172413796702
0.43103448275862077388,0.20487518385730507653,0.16293103448275864098
0.43103448275862077388,0.20551441747041304664,0.16896551724137931494
0.43103448275862077388,0.20572749534142759087,0.17500000000000001665

0.51724137931034486204,0.00000000000000000000,0.00000000000000000000
0.51724137931034486204,0.02531518007568915943,0.00603448275862070171
0.51724137931034486204,0.04645151959445831952,0.01206896551724137567
0.51724137931034486204,0.06436006674077633660,0.01810344827586207739
0.51724137931034486204,0.07977504055116924064,0.02413793103448275135
0.51724137931034486204,0.09325767538179455252,0.03017241379310345306
0.51724137931034486204,0.10523241115001580326,0.03620689655172412702
0.51724137931034486204,0.11601653835092226585,0.04224137931034482873
0.51724137931034486204,0.12584428164856070742,0.04827586206896553045
0.51724137931034486204,0.13488619044578303852,0.05431034482758620441
0.51724137931034486204,0.14326459884584560878,0.06034482758620690612
0.51724137931034486204,0.15106582043300761931,0.06637931034482759396
0.51724137931034486204,0.15834965491815217176,0.07241379310344829567
0.51724137931034486204,0.16515670351867195453,0.07844827586206896963
0.51724137931034486204,0.17151391756931330668,0.08448275862068965747
0.51724137931034486204,0.17743873989213176934,0.09051724137931035918
0.51724137931034486204,0.18294214048897108893,0.09655172413793104702
0.51724137931034486204,0.18803079675871089971,0.10258620689655172098
0.51724137931034486204,0.19270862328372639904,0.10862068965517242269
0.51724137931034486204,0.19697781687534343664,0.11465517241379311053
0.51724137931034486204,0.20083954861634181754,0.12068965517241381225
0.51724137931034486204,0.20429440568954007618,0.12672413793103448620
0.51724137931034486204,0.20734266143496685175,0.13275862068965518792
0.51724137931034486204,0.20998443193387728023,0.13879310344827586188
0.51724137931034486204,0.21221976107568252257,0.14482758620689656359
0.51724137931034486204,0.21404866312351486513,0.15086206896551723755
0.51724137931034486204,0.21547114185543350673,0.15689655172413796702
0.51724137931034486204,0.21648719802096488829,0.16293103448275864098
0.51724137931034486204,0.21709683171655680400,0.16896551724137931494
0.51724137931034486204,0.21730004294838331513,0.17500000000000001665

0.60344827586206895020,0.00000000000000000000,0.00000000000000000000
0.60344827586206895020,0.03171075565977966165,0.00603448275862070171
0.60344827586206895020,0.05720568212527823992,0.01206896551724137567
0.60344827586206895020,0.07795970141335040182,0.01810344827586207739
0.60344827586206895020,0.09511146857833585599,0.02413793103448275135
0.60344827586206895020,0.10953136739471634742,0.03017241379310345306
0.60344827586206895020,0.12187763557239408851,0.03620689655172412702
0.60344827586206895020,0.13264233938581054817,0.04224137931034482873
0.60344827586206895020,0.14218872343133273639,0.04827586206896553045
0.60344827586206895020,0.15078128226700260317,0.05431034482758620441
0.60344827586206895020,0.15860973631419472696,0.06034482758620690612
0.60344827586206895020,0.16580794399129056282,0.06637931034482759396
0.60344827586206895020,0.17246864498448408187,0.07241379310344829567
0.60344827586206895020,0.17865480521960497295,0.07844827586206896963
0.60344827586206895020,0.18440822186071906263,0.08448275862068965747
0.60344827586206895020,0.18975594590556352226,0.09051724137931035918
0.60344827586206895020,0.19471499005392414738,0.09655172413793104702
0.60344827586206895020,0.19929570987219991096,0.10258620689655172098
0.60344827586206895020,0.20350417624494360203,0.10862068965517242269
0.60344827586206895020,0.20734379607145234092,0.11465517241379311053
0.60344827586206895020,0.21081638551183656816,0.12068965517241381225
0.60344827586206895020,0.21392285519174164543,0.12672413793103448620
0.60344827586206895020,0.21666362901737229452,0.13275862068965518792
0.60344827586206895020,0.21903888701199319966,0.13879310344827586188
0.60344827586206895020,0.22104869724098713535,0.14482758620689656359
0.60344827586206895020,0.22269308182416702735,0.15086206896551723755
0.60344827586206895020,0.22397204662069192249,0.15689655172413796702
0.60344827586206895020,0.22488559279295641802,0.16293103448275864098
0.60344827586206895020,0.22543372049053522765,0.16896551724137931494
0.60344827586206895020,0.22561642972300335885,0.17500000000000001665

0.68965517241379314939,0.00000000000000000000,0.00000000000000000000
0.68965517241379314939,0.03897289524241794034,0.00603448275862070171
0.68965517241379314939,0.06935071608117851505,0.01206896551724137567
0.68965517241379314939,0.09322238970305164740,0.01810344827586207739
0.68965517241379314939,0.11220058950512684648,0.02413793103448275135
0.68965517241379314939,0.12751803715584575372,0.03017241379310345306
0.68965517241379314939,0.14010699255224629001,0.03620689655172412702
0.68965517241379314939,0.15066436753551543104,0.04224137931034482873
0.68965517241379314939,0.15970462422916012479,0.04827586206896553045
0.68965517241379314939,0.16760236540317965948,0.05431034482758620441
0.68965517241379314939,0.17462629146448760409,0.06034482758620690612
0.68965517241379314939,0.18096598564944482712,0.06637931034482759396
0.68965517241379314939,0.18675279486966372966,0.07241379310344829567
0.68965517241379314939,0.19207589755817508492,0.07844827586206896963
0.68965517241379314939,0.19699449090055856648,0.08448275862068965747
0.68965517241379314939,0.20154688713566909497,0.09051724137931035918
0.68965517241379314939,0.20575718129408926416,0.09655172413793104702
0.68965517241379314939,0.20964003993034741047,0.10258620689655172098
0.68965517241379314939,0.21320406121820795198,0.10862068965517242269
0.68965517241379314939,0.21645407033790631246,0.11465517241379311053
0.68965517241379314939,0.21939263951101539707,0.12068965517241381225
0.68965517241379314939,0.22202105845363268033,0.12672413793103448620
0.68965517241379314939,0.22433992754271747661,0.13275862068965518792
0.68965517241379314939,0.22634950174462564743,0.13879310344827586188
0.68965517241379314939,0.22804987746013424821,0.14482758620689656359
0.68965517241379314939,0.22944108601746132647,0.15086206896551723755
0.68965517241379314939,0.23052313571491458988,0.15689655172413796702
0.68965517241379314939,0.23129602819878958275,0.16293103448275864098
0.68965517241379314939,0.23175976368092862656,0.16896551724137931494
0.68965517241379314939,0.23191434217489259595,0.17500000000000001665

0.77586206896551723755,0.00000000000000000000,0.00000000000000000000
0.77586206896551723755,0.04670390888768445603,0.00603448275862070171
0.77586206896551723755,0.08224447270514165242,0.01206896551724137567
0.77586206896551723755,0.10937450118868523308,0.01810344827586207739
0.77586206896551723755,0.13021919193118428049,0.02413793103448275135
0.77586206896551723755,0.14640303822878769635,0.03017241379310345306
0.77586206896551723755,0.15915458176432412118,0.03620689655172412702
0.77586206896551723755,0.16939222013150689872,0.04224137931034482873
0.77586206896551723755,0.17779391680916098450,0.04827586206896553045
0.77586206896551723755,0.18485332718127256424,0.05431034482758620441
0.77586206896551723755,0.19092454740829556403,0.06034482758620690612
0.77586206896551723755,0.19625741222942119646,0.06637931034482759396
0.77586206896551723755,0.20102501195598793116,0.07241379310344829567
0.77586206896551723755,0.20534486684445618643,0.07844827586206896963
0.77586206896551723755,0.20929498755496678264,0.08448275862068965747
0.77586206896551723755,0.21292586235001534356,0.09051724137931035918
0.77586206896551723755,0.21626924390877827475,0.09655172413793104702
0.77586206896551723755,0.21934445996769350029,0.10258620689655172098
0.77586206896551723755,0.22216284128860039337,0.10862068965517242269
0.77586206896551723755,0.22473074654365182701,0.11465517241379311053
0.77586206896551723755,0.22705156543289778392,0.12068965517241381225
0.77586206896551723755,0.22912699755747942265,0.12672413793103448620
0.77586206896551723755,0.23095783410033005056,0.13275862068965518792
0.77586206896551723755,0.23254441105873630002,0.13879310344827586188
0.77586206896551723755,0.23388685547063389758,0.14482758620689656359
0.77586206896551723755,0.23498520862067093229,0.15086206896551723755
0.77586206896551723755,0.23583948144444261130,0.15689655172413796702
0.77586206896551723755,0.23644967611145409347,0.16293103448275864098
0.77586206896551723755,0.23681579290087348411,0.16896551724137931494
0.77586206896551723755,0.23693783183057143260,0.17500000000000001665

0.86206896551724132571,0.00000000000000000000,0.00000000000000000000
0.86206896551724132571,0.05438300325269460750,0.00603448275862070171
0.86206896551724132571,0.09503363413126261761,0.01206896551724137567
0.86206896551724132571,0.12536933012280709887,0.01810344827586207739
0.86206896551724132571,0.14802838831904707728,0.02413793103448275135
0.86206896551724132571,0.16502751340340926500,0.03017241379310345306
0.86206896551724132571,0.17789186141773122296,0.03620689655172412702
0.86206896551724132571,0.18776156432370219584,0.04224137931034482873
0.86206896551724132571,0.19547827048403329520,0.04827586206896553045
0.86206896551724132571,0.20165482153201652604,0.05431034482758620441
0.86206896551724132571,0.20673080523748990633,0.06034482758620690612
0.86206896551724132571,0.21101637547415919016,0.06637931034482759396
0.86206896551724132571,0.21472641280962023735,0.07241379310344829567
0.86206896551724132571,0.21800681113716463555,0.07844827586206896963
0.86206896551724132571,0.22095441570942359055,0.08448275862068965747
0.86206896551724132571,0.22363190447999303778,0.09051724137931035918
0.86206896551724132571,0.22607869637227406834,0.09655172413793104702
0.86206896551724132571,0.22831878553674228582,0.10258620689655172098
0.86206896551724132571,0.23036623839061379226,0.10862068965517242269
0.86206896551724132571,0.23222894881928723976,0.11465517241379311053
0.86206896551724132571,0.23391112491890114766,0.12068965517241381225
0.86206896551724132571,0.23541487663573190670,0.12672413793103448620
0.86206896551724132571,0.23674118617286452060,0.13275862068965518792
0.86206896551724132571,0.23789047064947280163,0.13879310344827586188
0.86206896551724132571,0.23886288777504105507,0.14482758620689656359
0.86206896551724132571,0.23965848880182327729,0.15086206896551723755
0.86206896551724132571,0.24027728730566266790,0.15689655172413796702
0.86206896551724132571,0.24071928597986122500,0.16293103448275864098
0.86206896551724132571,0.24098448517098836064,0.16896551724137931494
0.86206896551724132571,0.24107288490122935620,0.17500000000000001665

0.94827586206896552490,0.00000000000000000000,0.00000000000000000000
0.94827586206896552490,0.06143637240852409948,0.00603448275862070171
0.94827586206896552490,0.10677209903986653594,0.01206896551724137567
0.94827586206896552490,0.14003756862896410418,0.01810344827586207739
0.94827586206896552490,0.16434428297153647058,0.02413793103448275135
0.94827586206896552490,0.18207066270247507234,0.03017241379310345306
0.94827586206896552490,0.19501541569960961775,0.03620689655172412702
0.94827586206896552490,0.20452316787989552327,0.04224137931034482873
0.94827586206896552490,0.21158652557268059491,0.04827586206896553045
0.94827586206896552490,0.21692824962565893099,0.05431034482758620441
0.94827586206896552490,0.22106677222735110488,0.06034482758620690612
0.94827586206896552490,0.22436787641940703075,0.06637931034482759396
0.94827586206896552490,0.22708498372665736342,0.07241379310344829567
0.94827586206896552490,0.22939015555658570644,0.07844827586206896963
0.94827586206896552490,0.23139760731670436233,0.08448275862068965747
0.94827586206896552490,0.23318125887213303482,0.09051724137931035918
0.94827586206896552490,0.23478759932045406567,0.09655172413793104702
0.94827586206896552490,0.23624492640058608606,0.10258620689655172098
0.94827586206896552490,0.23756982948093818830,0.10862068965517242269
0.94827586206896552490,0.23877161829340931565,0.11465517241379311053
0.94827586206896552490,0.23985525569784277300,0.12068965517241381225
0.94827586206896552490,0.24082323008026926270,0.12672413793103448620
0.94827586206896552490,0.24167669981162140380,0.13275862068965518792
0.94827586206896552490,0.24241615682552658528,0.13879310344827586188
0.94827586206896552490,0.24304178711822654879,0.14482758620689656359
0.94827586206896552490,0.24355365113457450033,0.15086206896551723755
0.94827586206896552490,0.24395176488537542725,0.15689655172413796702
0.94827586206896552490,0.24423613154700177241,0.16293103448275864098
0.94827586206896552490,0.24440675152818361338,0.16896551724137931494
0.94827586206896552490,0.24446362485508532636,0.17500000000000001665

1.03448275862068972408,0.00000000000000000000,0.00000000000000000000
1.03448275862068972408,0.06730639639980656730,0.00603448275862070171
1.03448275862068972408,0.11653748444427954045,0.01206896551724137567
1.03448275862068972408,0.15223484283932811612,0.01810344827586207739
1.03448275862068972408,0.17790461732626619562,0.02413793103448275135
1.03448275862068972408,0.19622689293398559718,0.03017241379310345306
1.03448275862068972408,0.20922851469738099062,0.03620689655172412702
1.03448275862068972408,0.21842465269891200852,0.04224137931034482873
1.03448275862068972408,0.22493380941196033929,0.04827586206896553045
1.03448275862068972408,0.22957041627012420015,0.05431034482758620441
1.03448275862068972408,0.23291866024460886053,0.06034482758620690612
1.03448275862068972408,0.23539071807125622193,0.06637931034482759396
1.03448275862068972408,0.23727215371832888202,0.07241379310344829567
1.03448275862068972408,0.23875685181476183350,0.07844827586206896963
1.03448275862068972408,0.23997351415503648253,0.08448275862068965747
1.03448275862068972408,0.24100543614995567632,0.09051724137931035918
1.03448275862068972408,0.24190500329122305301,0.09655172413793104702
1.03448275862068972408,0.24270410243069107104,0.10258620689655172098
1.03448275862068972408,0.24342142703126518066,0.10862068965517242269
1.03448275862068972408,0.24406746761456257766,0.11465517241379311053
1.03448275862068972408,0.24464781649935635199,0.12068965517241381225
1.03448275862068972408,0.24516527768341250804,0.12672413793103448620
1.03448275862068972408,0.24562115645838084044,0.13275862068965518792
1.03448275862068972408,0.24601600715175531153,0.13879310344827586188
1.03448275862068972408,0.24635003935040858392,0.14482758620689656359
1.03448275862068972408,0.24662332116565108264,0.15086206896551723755
1.03448275862068972408,0.24683587063900078173,0.15689655172413796702
1.03448275862068972408,0.24698769134970197103,0.16293103448275864098
1.03448275862068972408,0.24707878375832550977,0.16896551724137931494
1.03448275862068972408,0.24710914789435428629,0.17500000000000001665

1.12068965517241370122,0.00000000000000000000,0.00000000000000000000
1.12068965517241370122,0.07151406233818884128,0.00603448275862070171
1.12068965517241370122,0.12353600884152239614,0.01206896551724137567
1.12068965517241370122,0.16097423462366911018,0.01810344827586207739
1.12068965517241370122,0.18761807148726467043,0.02413793103448275135
1.12068965517241370122,0.20636407085459584909,0.03017241379310345306
1.12068965517241370122,0.21940278295272258591,0.03620689655172412702
1.12068965517241370122,0.22837175584823349306,0.04224137931034482873
1.12068965517241370122,0.23447983175888637009,0.04827586206896553045
1.12068965517241370122,0.23860722250703489400,0.05431034482758620441
1.12068965517241370122,0.24138529895744084697,0.06034482758620690612
1.12068965517241370122,0.24325952873428988155,0.06637931034482759396
1.12068965517241370122,0.24453854037343375483,0.07241379310344829567
1.12068965517241370122,0.24543187827053414285,0.07844827586206896963
1.12068965517241370122,0.24607863926835438217,0.08448275862068965747
1.12068965517241370122,0.24656884642139825781,0.09051724137931035918
1.12068965517241370122,0.24695911631789560503,0.09655172413793104702
1.12068965517241370122,0.24728391126224702479,0.10258620689655172098
1.12068965517241370122,0.24756343455993820579,0.10862068965517242269
1.12068965517241370122,0.24780902403606924755,0.11465517241379311053
1.12068965517241370122,0.24802672369249875728,0.12068965517241381225
1.12068965517241370122,0.24821956400162961676,0.12672413793103448620
1.12068965517241370122,0.24838895568153379623,0.13275862068965518792
1.12068965517241370122,0.24853549783189415878,0.13879310344827586188
1.12068965517241370122,0.24865941696759649715,0.14482758620689656359
1.12068965517241370122,0.24876078670119822212,0.15086206896551723755
1.12068965517241370122,0.24883962653140334620,0.15689655172413796702
1.12068965517241370122,0.24889594032654624445,0.16293103448275864098
1.12068965517241370122,0.24892972858439729733,0.16896551724137931494
1.12068965517241370122,0.24894099133682082159,0.17500000000000001665

1.20689655172413790041,0.00000000000000000000,0.00000000000000000000
1.20689655172413790041,0.07370989986579234987,0.00603448275862070171
1.20689655172413790041,0.12718796891274181116,0.01206896551724137567
1.20689655172413790041,0.16553412703042322263,0.01810344827586207739
1.20689655172413790041,0.19268556512969978178,0.02413793103448275135
1.20689655172413790041,0.21165185759641508279,0.03017241379310345306
1.20689655172413790041,0.22470902956982219401,0.03620689655172412702
1.20689655172413790041,0.23355852597469378695,0.04224137931034482873
1.20689655172413790041,0.23945635785474816970,0.04827586206896553045
1.20689655172413790041,0.24331708275392882612,0.05431034482758620441
1.20689655172413790041,0.24579670752505200504,0.06034482758620690612
1.20689655172413790041,0.24735808186626445648,0.06637931034482759396
1.20689655172413790041,0.24832187694849480741,0.07241379310344829567
1.20689655172413790041,0.24890581355550972509,0.07844827586206896963
1.20689655172413790041,0.24925441606616571821,0.08448275862068965747
1.20689655172413790041,0.24946122021985478456,0.09051724137931035918
1.20689655172413790041,0.24958505177483505943,0.09655172413793104702
1.20689655172413790041,0.24966171774899814650,0.10258620689655172098
1.20689655172413790041,0.24971220977751096282,0.10862068965517242269
1.20689655172413790041,0.24974830808555778527,0.11465517241379311053
1.20689655172413790041,0.24977629251096292173,0.12068965517241381225
1.20689655172413790041,0.24979931177466763170,0.12672413793103448620
1.20689655172413790041,0.24981883164073262482,0.13275862068965518792
1.20689655172413790041,0.24983547458561272681,0.13879310344827586188
1.20689655172413790041,0.24984947596276746440,0.14482758620689656359
1.20689655172413790041,0.24986091225710421737,0.15086206896551723755
1.20689655172413790041,0.24986980372816330886,0.15689655172413796702
1.20689655172413790041,0.24987615439522081751,0.16293103448275864098
1.20689655172413790041,0.24987996477547014251,0.16896551724137931494
1.20689655172413790041,0.24988123490201888388,0.17500000000000001665

1.29310344827586209959,0.00000000000000000000,0.00000000000000000000
1.29310344827586209959,0.07370989986579234987,0.00603448275862070171
1.29310344827586209959,0.12718796891274181116,0.01206896551724137567
1.29310344827586209959,0.16553412703042322263,0.01810344827586207739
1.29310344827586209959,0.19268556512969978178,0.02413793103448275135
1.29310344827586209959,0.21165185759641508279,0.03017241379310345306
1.29310344827586209959,0.22470902956982219401,0.03620689655172412702
1.29310344827586209959,0.23355852597469378695,0.04224137931034482873
1.29310344827586209959,0.23945635785474816970,0.04827586206896553045
1.29310344827586209959,0.24331708275392882612,0.05431034482758620441
1.29310344827586209959,0.24579670752505200504,0.06034482758620690612
1.29310344827586209959,0.24735808186626445648,0.06637931034482759396
1.29310344827586209959,0.24832187694849480741,0.07241379310344829567
1.29310344827586209959,0.24890581355550972509,0.07844827586206896963
1.29310344827586209959,0.24925441606616571821,0.08448275862068965747
1.29310344827586209959,0.24946122021985478456,0.09051724137931035918
1.29310344827586209959,0.24958505177483505943,0.09655172413793104702
1.29310344827586209959,0.24966171774899814650,0.10258620689655172098
1.29310344827586209959,0.24971220977751096282,0.10862068965517242269
1.29310344827586209959,0.24974830808555778527,0.11465517241379311053
1.29310344827586209959,0.24977629251096292173,0.12068965517241381225
1.29310344827586209959,0.24979931177466763170,0.12672413793103448620
1.29310344827586209959,0.24981883164073262482,0.13275862068965518792
1.29310344827586209959,0.24983547458561272681,0.13879310344827586188
1.29310344827586209959,0.24984947596276746440,0.14482758620689656359
1.29310344827586209959,0.24986091225710421737,0.15086206896551723755
1.29310344827586209959,0.24986980372816330886,0.15689655172413796702
1.29310344827586209959,0.24987615439522081751,0.16293103448275864098
1.29310344827586209959,0.24987996477547014251,0.16896551724137931494
1.29310344827586209959,0.24988123490201888388,0.17500000000000001665

1.37931034482758629878,0.00000000000000000000,0.00000000000000000000
1.37931034482758629878,0.07151406233818884128,0.00603448275862070171
1.37931034482758629878,0.12353600884152239614,0.01206896551724137567
1.37931034482758629878,0.16097423462366911018,0.01810344827586207739
1.37931034482758629878,0.18761807148726467043,0.02413793103448275135
1.37931034482758629878,0.20636407085459584909,0.03017241379310345306
1.37931034482758629878,0.21940278295272258591,0.03620689655172412702
1.37931034482758629878,0.22837175584823349306,0.04224137931034482873
1.37931034482758629878,0.23447983175888637009,0.04827586206896553045
1.37931034482758629878,0.23860722250703489400,0.05431034482758620441
1.37931034482758629878,0.24138529895744084697,0.06034482758620690612
1.37931034482758629878,0.24325952873428988155,0.06637931034482759396
1.37931034482758629878,0.24453854037343375483,0.07241379310344829567
1.37931034482758629878,0.24543187827053414285,0.07844827586206896963
1.37931034482758629878,0.24607863926835438217,0.08448275862068965747
1.37931034482758629878,0.24656884642139825781,0.09051724137931035918
1.37931034482758629878,0.24695911631789560503,0.09655172413793104702
1.37931034482758629878,0.24728391126224702479,0.10258620689655172098
1.37931034482758629878,0.24756343455993820579,0.10862068965517242269
1.37931034482758629878,0.24780902403606924755,0.11465517241379311053
1.37931034482758629878,0.24802672369249875728,0.12068965517241381225
1.37931034482758629878,0.24821956400162961676,0.12672413793103448620
1.37931034482758629878,0.24838895568153379623,0.13275862068965518792
1.37931034482758629878,0.24853549783189415878,0.13879310344827586188
1.37931034482758629878,0.24865941696759649715,0.14482758620689656359
1.37931034482758629878,0.24876078670119822212,0.15086206896551723755
1.37931034482758629878,0.24883962653140334620,0.15689655172413796702
1.37931034482758629878,0.24889594032654624445,0.16293103448275864098
1.37931034482758629878,0.24892972858439729733,0.16896551724137931494
1.37931034482758629878,0.24894099133682082159,0.17500000000000001665

1.46551724137931027592,0.00000000000000000000,0.00000000000000000000
1.46551724137931027592,0.06730639639980656730,0.00603448275862070171
1.46551724137931027592,0.11653748444427954045,0.01206896551724137567
1.46551724137931027592,0.15223484283932811612,0.01810344827586207739
1.46551724137931027592,0.17790461732626619562,0.02413793103448275135
1.46551724137931027592,0.19622689293398559718,0.03017241379310345306
1.46551724137931027592,0.20922851469738099062,0.03620689655172412702
1.46551724137931027592,0.21842465269891200852,0.04224137931034482873
1.46551724137931027592,0.22493380941196033929,0.04827586206896553045
1.46551724137931027592,0.22957041627012420015,0.05431034482758620441
1.46551724137931027592,0.23291866024460886053,0.06034482758620690612
1.46551724137931027592,0.23539071807125622193,0.06637931034482759396
1.46551724137931027592,0.23727215371832888202,0.07241379310344829567
1.46551724137931027592,0.23875685181476183350,0.07844827586206896963
1.46551724137931027592,0.23997351415503648253,0.08448275862068965747
1.46551724137931027592,0.24100543614995567632,0.09051724137931035918
1.46551724137931027592,0.24190500329122305301,0.09655172413793104702
1.46551724137931027592,0.24270410243069107104,0.10258620689655172098
1.46551724137931027592,0.24342142703126518066,0.10862068965517242269
1.46551724137931027592,0.24406746761456257766,0.11465517241379311053
1.46551724137931027592,0.24464781649935635199,0.12068965517241381225
1.46551724137931027592,0.24516527768341250804,0.12672413793103448620
1.46551724137931027592,0.24562115645838084044,0.13275862068965518792
1.46551724137931027592,0.24601600715175531153,0.13879310344827586188
1.46551724137931027592,0.24635003935040858392,0.14482758620689656359
1.46551724137931027592,0.24662332116565108264,0.15086206896551723755
1.46551724137931027592,0.24683587063900078173,0.15689655172413796702
1.46551724137931027592,0.24698769134970197103,0.16293103448275864098
1.46551724137931027592,0.24707878375832550977,0.16896551724137931494
1.46551724137931027592,0.24710914789435428629,0.17500000000000001665

1.55172413793103447510,0.00000000000000000000,0.00000000000000000000
1.55172413793103447510,0.06143637240852409948,0.00603448275862070171
1.55172413793103447510,0.10677209903986653594,0.01206896551724137567
1.55172413793103447510,0.14003756862896410418,0.01810344827586207739
1.55172413793103447510,0.16434428297153647058,0.02413793103448275135
1.55172413793103447510,0.18207066270247507234,0.03017241379310345306
1.55172413793103447510,0.19501541569960961775,0.03620689655172412702
1.55172413793103447510,0.20452316787989552327,0.04224137931034482873
1.55172413793103447510,0.21158652557268059491,0.04827586206896553045
1.55172413793103447510,0.21692824962565893099,0.05431034482758620441
1.55172413793103447510,0.22106677222735110488,0.06034482758620690612
1.55172413793103447510,0.22436787641940703075,0.06637931034482759396
1.55172413793103447510,0.22708498372665736342,0.07241379310344829567
1.55172413793103447510,0.22939015555658570644,0.07844827586206896963
1.55172413793103447510,0.23139760731670436233,0.08448275862068965747
1.55172413793103447510,0.23318125887213303482,0.09051724137931035918
1.55172413793103447510,0.23478759932045406567,0.09655172413793104702
1.55172413793103447510,0.23624492640058608606,0.10258620689655172098
1.55172413793103447510,0.23756982948093818830,0.10862068965517242269
1.55172413793103447510,0.23877161829340931565,0.11465517241379311053
1.55172413793103447510,0.23985525569784277300,0.12068965517241381225
1.55172413793103447510,0.24082323008026926270,0.12672413793103448620
1.55172413793103447510,0.24167669981162140380,0.13275862068965518792
1.55172413793103447510,0.24241615682552658528,0.13879310344827586188
1.55172413793103447510,0.24304178711822654879,0.14482758620689656359
1.55172413793103447510,0.24355365113457450033,0.15086206896551723755
1.55172413793103447510,0.24395176488537542725,0.15689655172413796702
1.55172413793103447510,0.24423613154700177241,0.16293103448275864098
1.55172413793103447510,0.24440675152818361338,0.16896551724137931494
1.55172413793103447510,0.24446362485508532636,0.17500000000000001665

1.63793103448275867429,0.00000000000000000000,0.00000000000000000000
1.63793103448275867429,0.05438300325269460750,0.00603448275862070171
1.63793103448275867429,0.09503363413126261761,0.01206896551724137567
1.63793103448275867429,0.12536933012280709887,0.01810344827586207739
1.63793103448275867429,0.14802838831904707728,0.02413793103448275135
1.63793103448275867429,0.16502751340340926500,0.03017241379310345306
1.63793103448275867429,0.17789186141773122296,0.03620689655172412702
1.63793103448275867429,0.18776156432370219584,0.04224137931034482873
1.63793103448275867429,0.19547827048403329520,0.04827586206896553045
1.63793103448275867429,0.20165482153201652604,0.05431034482758620441
1.63793103448275867429,0.20673080523748990633,0.06034482758620690612
1.63793103448275867429,0.21101637547415919016,0.06637931034482759396
1.63793103448275867429,0.21472641280962023735,0.07241379310344829567
1.63793103448275867429,0.21800681113716463555,0.07844827586206896963
1.63793103448275867429,0.22095441570942359055,0.08448275862068965747
1.63793103448275867429,0.22363190447999303778,0.09051724137931035918
1.63793103448275867429,0.22607869637227406834,0.09655172413793104702
1.63793103448275867429,0.22831878553674228582,0.10258620689655172098
1.63793103448275867429,0.23036623839061379226,0.10862068965517242269
1.63793103448275867429,0.23222894881928723976,0.11465517241379311053
1.63793103448275867429,0.23391112491890114766,0.12068965517241381225
1.63793103448275867429,0.23541487663573190670,0.12672413793103448620
1.63793103448275867429,0.23674118617286452060,0.13275862068965518792
1.63793103448275867429,0.23789047064947280163,0.13879310344827586188
1.63793103448275867429,0.23886288777504105507,0.14482758620689656359
1.63793103448275867429,0.23965848880182327729,0.15086206896551723755
1.63793103448275867429,0.24027728730566266790,0.15689655172413796702
1.63793103448275867429,0.24071928597986122500,0.16293103448275864098
1.63793103448275867429,0.24098448517098836064,0.16896551724137931494
1.63793103448275867429,0.24107288490122935620,0.17500000000000001665

1.72413793103448265143,0.00000000000000000000,0.00000000000000000000
1.72413793103448265143,0.04670390888768445603,0.00603448275862070171
1.72413793103448265143,0.08224447270514165242,0.01206896551724137567
1.72413793103448265143,0.10937450118868523308,0.01810344827586207739
1.72413793103448265143,0.13021919193118428049,0.02413793103448275135
1.72413793103448265143,0.14640303822878769635,0.03017241379310345306
1.72413793103448265143,0.15915458176432412118,0.03620689655172412702
1.72413793103448265143,0.16939222013150689872,0.04224137931034482873
1.72413793103448265143,0.17779391680916098450,0.04827586206896553045
1.72413793103448265143,0.18485332718127256424,0.05431034482758620441
1.72413793103448265143,0.19092454740829556403,0.06034482758620690612
1.72413793103448265143,0.19625741222942119646,0.06637931034482759396
1.72413793103448265143,0.20102501195598793116,0.07241379310344829567
1.72413793103448265143,0.20534486684445618643,0.07844827586206896963
1.72413793103448265143,0.20929498755496678264,0.08448275862068965747
1.72413793103448265143,0.21292586235001534356,0.09051724137931035918
1.72413793103448265143,0.21626924390877827475,0.09655172413793104702
1.72413793103448265143,0.21934445996769350029,0.10258620689655172098
1.72413793103448265143,0.22216284128860039337,0.10862068965517242269
1.72413793103448265143,0.22473074654365182701,0.11465517241379311053
1.72413793103448265143,0.22705156543289778392,0.12068965517241381225
1.72413793103448265143,0.22912699755747942265,0.12672413793103448620
1.72413793103448265143,0.23095783410033005056,0.13275862068965518792
1.72413793103448265143,0.23254441105873630002,0.13879310344827586188
1.72413793103448265143,0.23388685547063389758,0.14482758620689656359
1.72413793103448265143,0.23498520862067093229,0.15086206896551723755
1.72413793103448265143,0.23583948144444261130,0.15689655172413796702
1.72413793103448265143,0.23644967611145409347,0.16293103448275864098
1.72413793103448265143,0.23681579290087348411,0.16896551724137931494
1.72413793103448265143,0.23693783183057143260,0.17500000000000001665

1.81034482758620685061,0.00000000000000000000,0.00000000000000000000
1.81034482758620685061,0.03897289524241794034,0.00603448275862070171
1.81034482758620685061,0.06935071608117851505,0.01206896551724137567
1.81034482758620685061,0.09322238970305164740,0.01810344827586207739
1.81034482758620685061,0.11220058950512684648,0.02413793103448275135
1.81034482758620685061,0.12751803715584575372,0.03017241379310345306
1.81034482758620685061,0.14010699255224629001,0.03620689655172412702
1.81034482758620685061,0.15066436753551543104,0.04224137931034482873
1.81034482758620685061,0.15970462422916012479,0.04827586206896553045
1.81034482758620685061,0.16760236540317965948,0.05431034482758620441
1.81034482758620685061,0.17462629146448760409,0.06034482758620690612
1.81034482758620685061,0.18096598564944482712,0.06637931034482759396
1.81034482758620685061,0.18675279486966372966,0.07241379310344829567
1.81034482758620685061,0.19207589755817508492,0.07844827586206896963
1.81034482758620685061,0.19699449090055856648,0.08448275862068965747
1.81034482758620685061,0.20154688713566909497,0.09051724137931035918
1.81034482758620685061,0.20575718129408926416,0.09655172413793104702
1.81034482758620685061,0.20964003993034741047,0.10258620689655172098
1.81034482758620685061,0.21320406121820795198,0.10862068965517242269
1.81034482758620685061,0.21645407033790631246,0.11465517241379311053
1.81034482758620685061,0.21939263951101539707,0.12068965517241381225
1.81034482758620685061,0.22202105845363268033,0.12672413793103448620
1.81034482758620685061,0.22433992754271747661,0.13275862068965518792
1.81034482758620685061,0.22634950174462564743,0.13879310344827586188
1.81034482758620685061,0.22804987746013424821,0.14482758620689656359
1.81034482758620685061,0.22944108601746132647,0.15086206896551723755
1.81034482758620685061,0.23052313571491458988,0.15689655172413796702
1.81034482758620685061,0.23129602819878958275,0.16293103448275864098
1.81034482758620685061,0.23175976368092862656,0.16896551724137931494
1.81034482758620685061,0.23191434217489259595,0.17500000000000001665

1.89655172413793104980,0.00000000000000000000,0.00000000000000000000
1.89655172413793104980,0.03171075565977966165,0.00603448275862070171
1.89655172413793104980,0.05720568212527823992,0.01206896551724137567
1.89655172413793104980,0.07795970141335040182,0.01810344827586207739
1.89655172413793104980,0.09511146857833585599,0.02413793103448275135
1.89655172413793104980,0.10953136739471634742,0.03017241379310345306
1.89655172413793104980,0.12187763557239408851,0.03620689655172412702
1.89655172413793104980,0.13264233938581054817,0.04224137931034482873
1.89655172413793104980,0.14218872343133273639,0.04827586206896553045
1.89655172413793104980,0.15078128226700260317,0.05431034482758620441
1.89655172413793104980,0.15860973631419472696,0.06034482758620690612
1.89655172413793104980,0.16580794399129056282,0.06637931034482759396
1.89655172413793104980,0.17246864498448408187,0.07241379310344829567
1.89655172413793104980,0.17865480521960497295,0.07844827586206896963
1.89655172413793104980,0.18440822186071906263,0.08448275862068965747
1.89655172413793104980,0.18975594590556352226,0.09051724137931035918
1.89655172413793104980,0.19471499005392414738,0.09655172413793104702
1.89655172413793104980,0.19929570987219991096,0.10258620689655172098
1.89655172413793104980,0.20350417624494360203,0.10862068965517242269
1.89655172413793104980,0.20734379607145234092,0.11465517241379311053
1.89655172413793104980,0.21081638551183656816,0.12068965517241381225
1.89655172413793104980,0.21392285519174164543,0.12672413793103448620
1.89655172413793104980,0.21666362901737229452,0.13275862068965518792
1.89655172413793104980,0.21903888701199319966,0.13879310344827586188
1.89655172413793104980,0.22104869724098713535,0.14482758620689656359
1.89655172413793104980,0.22269308182416702735,0.15086206896551723755
1.89655172413793104980,0.22397204662069192249,0.15689655172413796702
1.89655172413793104980,0.22488559279295641802,0.16293103448275864098
1.89655172413793104980,0.22543372049053522765,0.16896551724137931494
1.89655172413793104980,0.22561642972300335885,0.17500000000000001665

1.98275862068965524898,0.00000000000000000000,0.00000000000000000000
1.98275862068965524898,0.02531518007568915943,0.00603448275862070171
1.98275862068965524898,0.04645151959445831952,0.01206896551724137567
1.98275862068965524898,0.06436006674077633660,0.01810344827586207739
1.98275862068965524898,0.07977504055116924064,0.02413793103448275135
1.98275862068965524898,0.09325767538179455252,0.03017241379310345306
1.98275862068965524898,0.10523241115001580326,0.03620689655172412702
1.98275862068965524898,0.11601653835092226585,0.04224137931034482873
1.98275862068965524898,0.12584428164856070742,0.04827586206896553045
1.98275862068965524898,0.13488619044578303852,0.05431034482758620441
1.98275862068965524898,0.14326459884584560878,0.06034482758620690612
1.98275862068965524898,0.15106582043300761931,0.06637931034482759396
1.98275862068965524898,0.15834965491815217176,0.07241379310344829567
1.98275862068965524898,0.16515670351867195453,0.07844827586206896963
1.98275862068965524898,0.17151391756931330668,0.08448275862068965747
1.98275862068965524898,0.17743873989213176934,0.09051724137931035918
1.98275862068965524898,0.18294214048897108893,0.09655172413793104702
1.98275862068965524898,0.18803079675871089971,0.10258620689655172098
1.98275862068965524898,0.19270862328372639904,0.10862068965517242269
1.98275862068965524898,0.19697781687534343664,0.11465517241379311053
1.98275862068965524898,0.20083954861634181754,0.12068965517241381225
1.98275862068965524898,0.20429440568954007618,0.12672413793103448620
1.98275862068965524898,0.20734266143496685175,0.13275862068965518792
1.98275862068965524898,0.20998443193387728023,0.13879310344827586188
1.98275862068965524898,0.21221976107568252257,0.14482758620689656359
1.98275862068965524898,0.21404866312351486513,0.15086206896551723755
1.98275862068965524898,0.21547114185543350673,0.15689655172413796702
1.98275862068965524898,0.21648719802096488829,0.16293103448275864098
1.98275862068965524898,0.21709683171655680400,0.16896551724137931494
1.98275862068965524898,0.21730004294838331513,0.17500000000000001665

2.06896551724137900408,0.00000000000000000000,0.00000000000000000000
2.06896551724137900408,0.01999683418262463916,0.00603448275862070171
2.06896551724137900408,0.03741062033466086706,0.01206896551724137567
2.06896551724137900408,0.05278512334229414071,0.01810344827586207739
2.06896551724137900408,0.06654013532263439168,0.02413793103448275135
2.06896551724137900408,0.07899654384035301180,0.03017241379310345306
2.06896551724137900408,0.09039702379576181057,0.03620689655172412702
2.06896551724137900408,0.10092298705922396473,0.04224137931034482873
2.06896551724137900408,0.11070835234260603674,0.04827586206896553045
2.06896551724137900408,0.11985063182052267672,0.05431034482758620441
2.06896551724137900408,0.12841977041355737144,0.06034482758620690612
2.06896551724137900408,0.13646511819364903761,0.06637931034482759396
2.06896551724137900408,0.14402086583958070842,0.07241379310344829567
2.06896551724137900408,0.15111022722917161198,0.07844827586206896963
2.06896551724137900408,0.15774861187553607111,0.08448275862068965747
2.06896551724137900408,0.16394599276879662231,0.09051724137931035918
2.06896551724137900408,0.16970864204311156276,0.09655172413793104702
2.06896551724137900408,0.17504037752296250363,0.10258620689655172098
2.06896551724137900408,0.17994343738352755468,0.10862068965517242269
2.06896551724137900408,0.18441907765881221382,0.11465517241379311053
2.06896551724137900408,0.18846796791919684377,0.12068965517241381225
2.06896551724137900408,0.19209044388836343797,0.12672413793103448620
2.06896551724137900408,0.19528666184936074868,0.13275862068965518792
2.06896551724137900408,0.19805668817202304322,0.13879310344827586188
2.06896551724137900408,0.20040054795026360224,0.14482758620689656359
2.06896551724137900408,0.20231824933907466280,0.15086206896551723755
2.06896551724137900408,0.20380979449857375418,0.15689655172413796702
2.06896551724137900408,0.20487518385730507653,0.16293103448275864098
2.06896551724137900408,0.20551441747041304664,0.16896551724137931494
2.06896551724137900408,0.20572749534142759087,0.17500000000000001665

2.15517241379310320326,0.00000000000000000000,0.00000000000000000000
2.15517241379310320326,0.01572984786433627782,0.00603448275862070171
2.15517241379310320326,0.03000045800631777684,0.01206896551724137567
2.15517241379310320326,0.04307406272059413621,0.01810344827586207739
2.15517241379310320326,0.05515310805129630678,0.02413793103448275135
2.15517241379310320326,0.06639234301688079487,0.03017241379310345306
2.15517241379310320326,0.07690879833701953772,0.03620689655172412702
2.15517241379310320326,0.08678996044610842731,0.04224137931034482873
2.15517241379310320326,0.09610041205627438410,0.04827586206896553045
2.15517241379310320326,0.10488717871468888898,0.05431034482758620441
2.15517241379310320326,0.11318399157518266307,0.06034482758620690612
2.15517241379310320326,0.12101464986226335985,0.06637931034482759396
2.15517241379310320326,0.12839564213630080824,0.07241379310344829567
2.15517241379310320326,0.13533816336152115767,0.07844827586206896963
2.15517241379310320326,0.14184964482318396239,0.08448275862068965747
2.15517241379310320326,0.14793489602655671145,0.09051724137931035918
2.15517241379310320326,0.15359694172769561282,0.09655172413793104702
2.15517241379310320326,0.15883762308424032028,0.10258620689655172098
2.15517241379310320326,0.16365801946307856340,0.10862068965517242269
2.15517241379310320326,0.16805873659048603530,0.11465517241379311053
2.15517241379310320326,0.17204009736884523507,0.12068965517241381225
2.15517241379310320326,0.17560226370193804390,0.12672413793103448620
2.15517241379310320326,0.17874531095774698342,0.13275862068965518792
2.15517241379310320326,0.18146927114332955799,0.13879310344827586188
2.15517241379310320326,0.18377415636030289270,0.14482758620689656359
2.15517241379310320326,0.18565997054143712486,0.15086206896551723755
2.15517241379310320326,0.18712671472845562870,0.15689655172413796702
2.15517241379310320326,0.18817438912802517126,0.16293103448275864098
2.15517241379310320326,0.18880299376673925771,0.16896551724137931494
2.15517241379310320326,0.18901252864630030404,0.17500000000000001665

2.24137931034482740245,0.00000000000000000000,0.00000000000000000000
2.24137931034482740245,0.01222612922945174284,0.00603448275862070171
2.24137931034482740245,0.02368742896603746179,0.01206896551724137567
2.24137931034482740245,0.03448096464047183118,0.01810344827586207739
2.24137931034482740245,0.04468167176935970708,0.02413793103448275135
2.24137931034482740245,0.05434683078854222332,0.03017241379310345306
2.24137931034482740245,0.06351976068444310786,0.03620689655172412702
2.24137931034482740245,0.07223284460974646604,0.04224137931034482873
2.24137931034482740245,0.08050998789151232737,0.04827586206896553045
2.24137931034482740245,0.08836859706236058210,0.05431034482758620441
2.24137931034482740245,0.09582115772777111129,0.06034482758620690612
2.24137931034482740245,0.10287647918402292868,0.06637931034482759396
2.24137931034482740245,0.10954066468097059528,0.07241379310344829567
2.24137931034482740245,0.11581785804089154979,0.07844827586206896963
2.24137931034482740245,0.12171080995818615855,0.08448275862068965747
2.24137931034482740245,0.12722130067392248276,0.09051724137931035918
2.24137931034482740245,0.13235044980324864317,0.09655172413793104702
2.24137931034482740245,0.13709893885169593952,0.10258620689655172098
2.24137931034482740245,0.14146716734752234901,0.10862068965517242269
2.24137931034482740245,0.14545535950064802933,0.11465517241379311053
2.24137931034482740245,0.14906363483357065736,0.12068965517241381225
2.24137931034482740245,0.15229205327506581402,0.12672413793103448620
2.24137931034482740245,0.15514064272263439204,0.13275862068965518792
2.24137931034482740245,0.15760941502370667822,0.13879310344827586188
2.24137931034482740245,0.15969837465770300722,0.14482758620689656359
2.24137931034482740245,0.16140752308034042595,0.15086206896551723755
2.24137931034482740245,0.16273686067721349069,0.15689655172413796702
2.24137931034482740245,0.16368638752481995402,0.16293103448275864098
2.24137931034482740245,0.16425610363300346961,0.16896551724137931494
2.24137931034482740245,0.16444600900239414454,0.17500000000000001665

2.32758620689655160163,0.00000000000000000000,0.00000000000000000000
2.32758620689655160163,0.00894409761264001839,0.00603448275862070171
2.32758620689655160163,0.01749721788632872116,0.01206896551724137567
2.32758620689655160163,0.02568165857993027698,0.01810344827586207739
2.32758620689655160163,0.03351463379394693798,0.02413793103448275135
2.32758620689655160163,0.04100930192407750696,0.03017241379310345306
2.32758620689655160163,0.04817561415795286461,0.03620689655172412702
2.32758620689655160163,0.05502100951608213802,0.04224137931034482873
2.32758620689655160163,0.06155097950264374479,0.04827586206896553045
2.32758620689655160163,0.06776952272624801876,0.05431034482758620441
2.32758620689655160163,0.07367950736579463589,0.06034482758620690612
2.32758620689655160163,0.07928295708267103781,0.06637931034482759396
2.32758620689655160163,0.08458127390839906279,0.07241379310344829567
2.32758620689655160163,0.08957540975705606534,0.07844827586206896963
2.32758620689655160163,0.09426599651498912547,0.08448275862068965747
2.32758620689655160163,0.09865344313712452740,0.09051724137931035918
2.32758620689655160163,0.10273800682016355490,0.09655172413793104702
2.32758620689655160163,0.10651984411877134240,0.10258620689655172098
2.32758620689655160163,0.10999904681211884749,0.10862068965517242269
2.32758620689655160163,0.11317566640545045908,0.11465517241379311053
2.32758620689655160163,0.11604973035533661108,0.12068965517241381225
2.32758620689655160163,0.11862125242854651419,0.12672413793103448620
2.32758620689655160163,0.12089023903366197255,0.13275862068965518792
2.32758620689655160163,0.12285669289226097689,0.13879310344827586188
2.32758620689655160163,0.12452061503335080939,0.14482758620689656359
2.32758620689655160163,0.12588200579133709822,0.15086206896551723755
2.32758620689655160163,0.12694086525479825189,0.15689655172413796702
2.32758620689655160163,0.12769719344130717187,0.16293103448275864098
2.32758620689655160163,0.12815099035312513265,0.16896551724137931494
2.32758620689655160163,0.12830225599039690731,0.17500000000000001665

2.41379310344827580082,0.00000000000000000000,0.00000000000000000000
2.41379310344827580082,0.00514360595296205116,0.00603448275862070171
2.41379310344827580082,0.01010115764882259584,0.01206896551724137567
2.41379310344827580082,0.01487426691411465780,0.01810344827586207739
2.41379310344827580082,0.01946417809559524564,0.02413793103448275135
2.41379310344827580082,0.02387184236739125359,0.03017241379310345306
2.41379310344827580082,0.02809797906584296165,0.03620689655172412702
2.41379310344827580082,0.03214312593156860853,0.04224137931034482873
2.41379310344827580082,0.03600767992608320395,0.04827586206896553045
2.41379310344827580082,0.03969193009473399175,0.05431034482758620441
2.41379310344827580082,0.04319608376808185823,0.06034482758620690612
2.41379310344827580082,0.04652028722948819278,0.06637931034482759396
2.41379310344827580082,0.04966464182687863049,0.07241379310344829567
2.41379310344827580082,0.05262921637077247472,0.07844827586206896963
2.41379310344827580082,0.05541405653801044495,0.08448275862068965747
2.41379310344827580082,0.05801919189050527143,0.09051724137931035918
2.41379310344827580082,0.06044464102010149720,0.09655172413793104702
2.41379310344827580082,0.06269041524358502648,0.10258620689655172098
2.41379310344827580082,0.06475652119534924811,0.10862068965517242269
2.41379310344827580082,0.06664296259852697801,0.11465517241379311053
2.41379310344827580082,0.06834974143785717271,0.12068965517241381225
2.41379310344827580082,0.06987685870849107139,0.12672413793103448620
2.41379310344827580082,0.07122431487368253988,0.13275862068965518792
2.41379310344827580082,0.07239211013016486063,0.13879310344827586188
2.41379310344827580082,0.07338024455232133869,0.14482758620689656359
2.41379310344827580082,0.07418871816432502653,0.15086206896551723755
2.41379310344827580082,0.07481753097257888563,0.15689655172413796702
2.41379310344827580082,0.07526668297835323318,0.16293103448275864098
2.41379310344827580082,0.07553617418181152177,0.16896551724137931494
2.41379310344827580082,0.07562600458296422912,0.17500000000000001665


