0.297823 124.693
0.35321  129.721
0.394569 -58.324
0.499611 -61.3408
0.499719 -54.3017
0.599168 -61.3408
0.696903 -180
0.801188 127.709
0.900467 109.609
1.00013  116.648
1.09958  109.609
1.14377  105.587
1.19906  104.581
1.29853  98.5475
1.34852  112.626
1.40372  105.587
1.5031   93.5196
1.60279  102.57
1.80174  91.5084
1.80185  98.5475
1.80215  118.659
2.00645  95.5307
2.00655  102.57
2.25551  106.592
2.50436  103.575
2.7532   100.559
3.00752  93.5196
