0.298773 0.0293663
0.398376 0.0370943
0.503913 0.0324575
0.59741  0.0819165
0.702883 0.0880989
0.802668 0.064915
0.896663 0.0293663
1.00207  0.0463679
1.10149  0.0850077
1.20669  0.139104
1.29445  0.166924
1.30021  0.183926
1.40558  0.208655
1.49909  0.255023
1.60445  0.281298
1.69229  0.295209
1.6981   0.304482
1.79745  0.355487
2.00242  0.386399
2.24842  0.418856
2.49437  0.460587
2.50036  0.438949
2.74585  0.55796
2.74594  0.542504
2.74597  0.537867
2.99738  0.647604
2.99748  0.630603
