
6.034483,0.000000,0.000000
6.034483,0.093299,0.377155
6.034483,0.183128,0.754310
6.034483,0.269546,1.131466
6.034483,0.352594,1.508621
6.034483,0.432307,1.885776
6.034483,0.508710,2.262931
6.034483,0.581821,2.640086
6.034483,0.651654,3.017241
6.034483,0.718220,3.394397
6.034483,0.781526,3.771552
6.034483,0.841576,4.148707
6.034483,0.898374,4.525862
6.034483,0.951924,4.903017
6.034483,1.002226,5.280172
6.034483,1.049281,5.657328
6.034483,1.093090,6.034483
6.034483,1.133654,6.411638
6.034483,1.170972,6.788793
6.034483,1.205045,7.165948
6.034483,1.235873,7.543103
6.034483,1.263456,7.920259
6.034483,1.287794,8.297414
6.034483,1.308887,8.674569
6.034483,1.326735,9.051724
6.034483,1.341338,9.428879
6.034483,1.352695,9.806034
6.034483,1.360808,10.183190
6.034483,1.365676,10.560345
6.034483,1.367298,10.937500

12.068966,0.000000,0.000000
12.068966,0.183643,0.377155
12.068966,0.358141,0.754310
12.068966,0.524277,1.131466
12.068966,0.682651,1.508621
12.068966,0.833726,1.885776
12.068966,0.977848,2.262931
12.068966,1.115278,2.640086
12.068966,1.246209,3.017241
12.068966,1.370780,3.394397
12.068966,1.489092,3.771552
12.068966,1.601216,4.148707
12.068966,1.707200,4.525862
12.068966,1.807079,4.903017
12.068966,1.900874,5.280172
12.068966,1.988599,5.657328
12.068966,2.070263,6.034483
12.068966,2.145873,6.411638
12.068966,2.215431,6.788793
12.068966,2.278939,7.165948
12.068966,2.336397,7.543103
12.068966,2.387807,7.920259
12.068966,2.433169,8.297414
12.068966,2.472482,8.674569
12.068966,2.505748,9.051724
12.068966,2.532965,9.428879
12.068966,2.554133,9.806034
12.068966,2.569254,10.183190
12.068966,2.578326,10.560345
12.068966,2.581350,10.937500

18.103448,0.000000,0.000000
18.103448,0.285509,0.377155
18.103448,0.549246,0.754310
18.103448,0.794608,1.131466
18.103448,1.024217,1.508621
18.103448,1.240079,1.885776
18.103448,1.443710,2.262931
18.103448,1.636243,2.640086
18.103448,1.818514,3.017241
18.103448,1.991134,3.394397
18.103448,2.154538,3.771552
18.103448,2.309036,4.148707
18.103448,2.454841,4.525862
18.103448,2.592097,4.903017
18.103448,2.720902,5.280172
18.103448,2.841317,5.657328
18.103448,2.953382,6.034483
18.103448,3.057121,6.411638
18.103448,3.152547,6.788793
18.103448,3.239669,7.165948
18.103448,3.318490,7.543103
18.103448,3.389013,7.920259
18.103448,3.451239,8.297414
18.103448,3.505167,8.674569
18.103448,3.550799,9.051724
18.103448,3.588134,9.428879
18.103448,3.617173,9.806034
18.103448,3.637914,10.183190
18.103448,3.650360,10.560345
18.103448,3.654508,10.937500

24.137931,0.000000,0.000000
24.137931,0.413822,0.377155
24.137931,0.781367,0.754310
24.137931,1.111815,1.131466
24.137931,1.412250,1.508621
24.137931,1.688089,1.885776
24.137931,1.943429,2.262931
24.137931,2.181330,2.640086
24.137931,2.404054,3.017241
24.137931,2.613246,3.394397
24.137931,2.810087,3.771552
24.137931,2.995410,4.148707
24.137931,3.169792,4.525862
24.137931,3.333624,4.903017
24.137931,3.487168,5.280172
24.137931,3.630591,5.657328
24.137931,3.763999,6.034483
24.137931,3.887457,6.411638
24.137931,4.001001,6.788793
24.137931,4.104655,7.165948
24.137931,4.198428,7.543103
24.137931,4.282327,7.920259
24.137931,4.356354,8.297414
24.137931,4.420510,8.674569
24.137931,4.474796,9.051724
24.137931,4.519211,9.428879
24.137931,4.553757,9.806034
24.137931,4.578432,10.183190
24.137931,4.593237,10.560345
24.137931,4.598172,10.937500

30.172414,0.000000,0.000000
30.172414,0.579405,0.377155
30.172414,1.072631,0.754310
30.172414,1.498710,1.131466
30.172414,1.872334,1.508621
30.172414,2.204734,1.885776
30.172414,2.504405,2.262931
30.172414,2.777694,2.640086
30.172414,3.029291,3.017241
30.172414,3.262607,3.394397
30.172414,3.480090,3.771552
30.172414,3.683468,4.148707
30.172414,3.873938,4.525862
30.172414,4.052312,4.903017
30.172414,4.219129,5.280172
30.172414,4.374738,5.657328
30.172414,4.519360,6.034483
30.172414,4.653127,6.411638
30.172414,4.776117,6.788793
30.172414,4.888376,7.165948
30.172414,4.989926,7.543103
30.172414,5.080779,7.920259
30.172414,5.160940,8.297414
30.172414,5.230412,8.674569
30.172414,5.289196,9.051724
30.172414,5.337292,9.428879
30.172414,5.374699,9.806034
30.172414,5.401419,10.183190
30.172414,5.417451,10.560345
30.172414,5.422795,10.937500

36.206897,0.000000,0.000000
36.206897,0.786561,0.377155
36.206897,1.430353,0.754310
36.206897,1.964662,1.131466
36.206897,2.415186,1.508621
36.206897,2.801569,1.885776
36.206897,3.138665,2.262931
36.206897,3.437580,2.640086
36.206897,3.706512,3.017241
36.206897,3.951430,3.394397
36.206897,4.176616,3.771552
36.206897,4.385090,4.148707
36.206897,4.578946,4.525862
36.206897,4.759605,4.903017
36.206897,4.928009,5.280172
36.206897,5.084770,5.657328
36.206897,5.230272,6.034483
36.206897,5.364747,6.411638
36.206897,5.488334,6.788793
36.206897,5.601109,7.165948
36.206897,5.703113,7.543103
36.206897,5.794366,7.920259
36.206897,5.874879,8.297414
36.206897,5.944654,8.674569
36.206897,6.003695,9.051724
36.206897,6.052001,9.428879
36.206897,6.089572,9.806034
36.206897,6.116408,10.183190
36.206897,6.132510,10.560345
36.206897,6.137877,10.937500

42.241379,0.000000,0.000000
42.241379,1.032299,0.377155
42.241379,1.849766,0.754310
42.241379,2.504024,1.131466
42.241379,3.034924,1.508621
42.241379,3.472932,1.885776
42.241379,3.841084,2.262931
42.241379,4.156603,2.640086
42.241379,4.432203,3.017241
42.241379,4.677142,3.394397
42.241379,4.898058,3.771552
42.241379,5.099638,4.148707
42.241379,5.285128,4.525862
42.241379,5.456730,4.903017
42.241379,5.615909,5.280172
42.241379,5.763610,5.657328
42.241379,5.900429,6.034483
42.241379,6.026729,6.411638
42.241379,6.142723,6.788793
42.241379,6.248528,7.165948
42.241379,6.344210,7.543103
42.241379,6.429799,7.920259
42.241379,6.505311,8.297414
42.241379,6.570752,8.674569
42.241379,6.626124,9.051724
42.241379,6.671429,9.428879
42.241379,6.706666,9.806034
42.241379,6.731835,10.183190
42.241379,6.746936,10.560345
42.241379,6.751970,10.937500

48.275862,0.000000,0.000000
48.275862,1.306826,0.377155
48.275862,2.314832,0.754310
48.275862,3.097131,1.131466
48.275862,3.710166,1.508621
48.275862,4.197083,1.885776
48.275862,4.590510,2.262931
48.275862,4.914840,2.640086
48.275862,5.188079,3.017241
48.275862,5.423338,3.394397
48.275862,5.630021,3.771552
48.275862,5.814764,4.148707
48.275862,5.982163,4.525862
48.275862,6.135341,4.903017
48.275862,6.276369,5.280172
48.275862,6.406589,5.657328
48.275862,6.526842,6.034483
48.275862,6.637643,6.411638
48.275862,6.739293,6.788793
48.275862,6.831960,7.165948
48.275862,6.915735,7.543103
48.275862,6.990662,7.920259
48.275862,7.056763,8.297414
48.275862,7.114047,8.674569
48.275862,7.162516,9.051724
48.275862,7.202173,9.428879
48.275862,7.233017,9.806034
48.275862,7.255049,10.183190
48.275862,7.268268,10.560345
48.275862,7.272674,10.937500

54.310345,0.000000,0.000000
54.310345,1.594907,0.377155
54.310345,2.800492,0.754310
54.310345,3.713101,1.131466
54.310345,4.407118,1.508621
54.310345,4.939399,1.885776
54.310345,5.352944,2.262931
54.310345,5.679896,2.640086
54.310345,5.943984,3.017241
54.310345,6.162486,3.394397
54.310345,6.347795,3.771552
54.310345,6.508656,4.148707
54.310345,6.651127,4.525862
54.310345,6.779320,4.903017
54.310345,6.895967,5.280172
54.310345,7.002835,5.657328
54.310345,7.101034,6.034483
54.310345,7.191241,6.411638
54.310345,7.273853,6.788793
54.310345,7.349093,7.165948
54.310345,7.417078,7.543103
54.310345,7.477869,7.920259
54.310345,7.531493,8.297414
54.310345,7.577963,8.674569
54.310345,7.617281,9.051724
54.310345,7.649450,9.428879
54.310345,7.674471,9.806034
54.310345,7.692343,10.183190
54.310345,7.703066,10.560345
54.310345,7.706640,10.937500

60.344828,0.000000,0.000000
60.344828,1.877787,0.377155
60.344828,3.275840,0.754310
60.344828,4.313768,1.131466
60.344828,5.083914,1.508621
60.344828,5.656860,1.885776
60.344828,6.085989,2.262931
60.344828,6.411203,2.640086
60.344828,6.661962,3.017241
60.344828,6.859714,3.394397
60.344828,7.019845,3.771552
60.344828,7.153211,4.148707
60.344828,7.267332,4.525862
60.344828,7.367314,4.903017
60.344828,7.456547,5.280172
60.344828,7.537226,5.657328
60.344828,7.610728,6.034483
60.344828,7.677895,6.411638
60.344828,7.739219,6.788793
60.344828,7.794976,7.165948
60.344828,7.845312,7.543103
60.344828,7.890303,7.920259
60.344828,7.929982,8.297414
60.344828,7.964364,8.674569
60.344828,7.993455,9.051724
60.344828,8.017256,9.428879
60.344828,8.035768,9.806034
60.344828,8.048991,10.183190
60.344828,8.056924,10.560345
60.344828,8.059569,10.937500

66.379310,0.000000,0.000000
66.379310,2.135361,0.377155
66.379310,3.707723,0.754310
66.379310,4.858149,1.131466
66.379310,5.695542,1.508621
66.379310,6.303146,1.885776
66.379310,6.743917,2.262931
66.379310,7.064916,2.640086
66.379310,7.300884,3.017241
66.379310,7.477118,3.394397
66.379310,7.611763,3.771552
66.379310,7.717622,4.148707
66.379310,7.803565,4.525862
66.379310,7.875613,4.903017
66.379310,7.937763,5.280172
66.379310,7.992605,5.657328
66.379310,8.041763,6.034483
66.379310,8.086229,6.411638
66.379310,8.126584,6.788793
66.379310,8.163152,7.165948
66.379310,8.196109,7.543103
66.379310,8.225541,7.920259
66.379310,8.251488,8.297414
66.379310,8.273968,8.674569
66.379310,8.292987,9.051724
66.379310,8.308548,9.428879
66.379310,8.320651,9.806034
66.379310,8.329296,10.183190
66.379310,8.334483,10.560345
66.379310,8.336211,10.937500

72.413793,0.000000,0.000000
72.413793,2.348373,0.377155
72.413793,4.064369,0.754310
72.413793,5.306942,1.131466
72.413793,6.198807,1.508621
72.413793,6.833768,1.885776
72.413793,7.282764,2.262931
72.413793,7.598825,2.640086
72.413793,7.821101,3.017241
72.413793,7.978095,3.394397
72.413793,8.090254,3.771552
72.413793,8.172005,4.148707
72.413793,8.233342,4.525862
72.413793,8.281050,4.903017
72.413793,8.319636,5.280172
72.413793,8.352013,5.657328
72.413793,8.380017,6.034483
72.413793,8.404761,6.411638
72.413793,8.426901,6.788793
72.413793,8.446805,7.165948
72.413793,8.464667,7.543103
72.413793,8.480586,7.920259
72.413793,8.494607,8.297414
72.413793,8.506750,8.674569
72.413793,8.517023,9.051724
72.413793,8.525427,9.428879
72.413793,8.531964,9.806034
72.413793,8.536633,10.183190
72.413793,8.539434,10.560345
72.413793,8.540368,10.937500

78.448276,0.000000,0.000000
78.448276,2.500414,0.377155
78.448276,4.318694,0.754310
78.448276,5.626634,1.131466
78.448276,6.556861,1.508621
78.448276,7.210754,1.885776
78.448276,7.664983,2.262931
78.448276,7.976861,2.640086
78.448276,8.188699,3.017241
78.448276,8.331302,3.394397
78.448276,8.426771,3.771552
78.448276,8.490695,4.148707
78.448276,8.533877,4.525862
78.448276,8.563651,4.903017
78.448276,8.584885,5.280172
78.448276,8.600731,5.657328
78.448276,8.613169,6.034483
78.448276,8.623405,6.411638
78.448276,8.632148,6.788793
78.448276,8.639794,7.165948
78.448276,8.646554,7.543103
78.448276,8.652534,7.920259
78.448276,8.657784,8.297414
78.448276,8.662325,8.674569
78.448276,8.666165,9.051724
78.448276,8.669305,9.428879
78.448276,8.671748,9.806034
78.448276,8.673493,10.183190
78.448276,8.674540,10.560345
78.448276,8.674889,10.937500

84.482759,0.000000,0.000000
84.482759,2.579564,0.377155
84.482759,4.451024,0.754310
84.482759,5.792876,1.131466
84.482759,6.742924,1.508621
84.482759,7.406501,1.885776
84.482759,7.863269,2.262931
84.482759,8.172779,2.640086
84.482759,8.378990,3.017241
84.482759,8.513912,3.394397
84.482759,8.600505,3.771552
84.482759,8.654970,4.148707
84.482759,8.688529,4.525862
84.482759,8.708803,4.903017
84.482759,8.720851,5.280172
84.482759,8.727945,5.657328
84.482759,8.732145,6.034483
84.482759,8.734705,6.411638
84.482759,8.736358,6.788793
84.482759,8.737517,7.165948
84.482759,8.738403,7.543103
84.482759,8.739124,7.920259
84.482759,8.739733,8.297414
84.482759,8.740251,8.674569
84.482759,8.740686,9.051724
84.482759,8.741042,9.428879
84.482759,8.741319,9.806034
84.482759,8.741516,10.183190
84.482759,8.741635,10.560345
84.482759,8.741674,10.937500

90.517241,0.000000,0.000000
90.517241,2.579564,0.377155
90.517241,4.451024,0.754310
90.517241,5.792876,1.131466
90.517241,6.742924,1.508621
90.517241,7.406501,1.885776
90.517241,7.863269,2.262931
90.517241,8.172779,2.640086
90.517241,8.378990,3.017241
90.517241,8.513912,3.394397
90.517241,8.600505,3.771552
90.517241,8.654970,4.148707
90.517241,8.688529,4.525862
90.517241,8.708803,4.903017
90.517241,8.720851,5.280172
90.517241,8.727945,5.657328
90.517241,8.732145,6.034483
90.517241,8.734705,6.411638
90.517241,8.736358,6.788793
90.517241,8.737517,7.165948
90.517241,8.738403,7.543103
90.517241,8.739124,7.920259
90.517241,8.739733,8.297414
90.517241,8.740251,8.674569
90.517241,8.740686,9.051724
90.517241,8.741042,9.428879
90.517241,8.741319,9.806034
90.517241,8.741516,10.183190
90.517241,8.741635,10.560345
90.517241,8.741674,10.937500

96.551724,0.000000,0.000000
96.551724,2.500414,0.377155
96.551724,4.318694,0.754310
96.551724,5.626634,1.131466
96.551724,6.556861,1.508621
96.551724,7.210754,1.885776
96.551724,7.664983,2.262931
96.551724,7.976861,2.640086
96.551724,8.188699,3.017241
96.551724,8.331302,3.394397
96.551724,8.426771,3.771552
96.551724,8.490695,4.148707
96.551724,8.533877,4.525862
96.551724,8.563651,4.903017
96.551724,8.584885,5.280172
96.551724,8.600731,5.657328
96.551724,8.613169,6.034483
96.551724,8.623405,6.411638
96.551724,8.632148,6.788793
96.551724,8.639794,7.165948
96.551724,8.646554,7.543103
96.551724,8.652534,7.920259
96.551724,8.657784,8.297414
96.551724,8.662325,8.674569
96.551724,8.666165,9.051724
96.551724,8.669305,9.428879
96.551724,8.671748,9.806034
96.551724,8.673493,10.183190
96.551724,8.674540,10.560345
96.551724,8.674889,10.937500

102.586207,0.000000,0.000000
102.586207,2.348373,0.377155
102.586207,4.064369,0.754310
102.586207,5.306942,1.131466
102.586207,6.198807,1.508621
102.586207,6.833768,1.885776
102.586207,7.282764,2.262931
102.586207,7.598825,2.640086
102.586207,7.821101,3.017241
102.586207,7.978095,3.394397
102.586207,8.090254,3.771552
102.586207,8.172005,4.148707
102.586207,8.233342,4.525862
102.586207,8.281050,4.903017
102.586207,8.319636,5.280172
102.586207,8.352013,5.657328
102.586207,8.380017,6.034483
102.586207,8.404761,6.411638
102.586207,8.426901,6.788793
102.586207,8.446805,7.165948
102.586207,8.464667,7.543103
102.586207,8.480586,7.920259
102.586207,8.494607,8.297414
102.586207,8.506750,8.674569
102.586207,8.517023,9.051724
102.586207,8.525427,9.428879
102.586207,8.531964,9.806034
102.586207,8.536633,10.183190
102.586207,8.539434,10.560345
102.586207,8.540368,10.937500

108.620690,0.000000,0.000000
108.620690,2.135361,0.377155
108.620690,3.707723,0.754310
108.620690,4.858149,1.131466
108.620690,5.695542,1.508621
108.620690,6.303146,1.885776
108.620690,6.743917,2.262931
108.620690,7.064916,2.640086
108.620690,7.300884,3.017241
108.620690,7.477118,3.394397
108.620690,7.611763,3.771552
108.620690,7.717622,4.148707
108.620690,7.803565,4.525862
108.620690,7.875613,4.903017
108.620690,7.937763,5.280172
108.620690,7.992605,5.657328
108.620690,8.041763,6.034483
108.620690,8.086229,6.411638
108.620690,8.126584,6.788793
108.620690,8.163152,7.165948
108.620690,8.196109,7.543103
108.620690,8.225541,7.920259
108.620690,8.251488,8.297414
108.620690,8.273968,8.674569
108.620690,8.292987,9.051724
108.620690,8.308548,9.428879
108.620690,8.320651,9.806034
108.620690,8.329296,10.183190
108.620690,8.334483,10.560345
108.620690,8.336211,10.937500

114.655172,0.000000,0.000000
114.655172,1.877787,0.377155
114.655172,3.275840,0.754310
114.655172,4.313768,1.131466
114.655172,5.083914,1.508621
114.655172,5.656860,1.885776
114.655172,6.085989,2.262931
114.655172,6.411203,2.640086
114.655172,6.661962,3.017241
114.655172,6.859714,3.394397
114.655172,7.019845,3.771552
114.655172,7.153211,4.148707
114.655172,7.267332,4.525862
114.655172,7.367314,4.903017
114.655172,7.456547,5.280172
114.655172,7.537226,5.657328
114.655172,7.610728,6.034483
114.655172,7.677895,6.411638
114.655172,7.739219,6.788793
114.655172,7.794976,7.165948
114.655172,7.845312,7.543103
114.655172,7.890303,7.920259
114.655172,7.929982,8.297414
114.655172,7.964364,8.674569
114.655172,7.993455,9.051724
114.655172,8.017256,9.428879
114.655172,8.035768,9.806034
114.655172,8.048991,10.183190
114.655172,8.056924,10.560345
114.655172,8.059569,10.937500

120.689655,0.000000,0.000000
120.689655,1.594907,0.377155
120.689655,2.800492,0.754310
120.689655,3.713101,1.131466
120.689655,4.407118,1.508621
120.689655,4.939399,1.885776
120.689655,5.352944,2.262931
120.689655,5.679896,2.640086
120.689655,5.943984,3.017241
120.689655,6.162486,3.394397
120.689655,6.347795,3.771552
120.689655,6.508656,4.148707
120.689655,6.651127,4.525862
120.689655,6.779320,4.903017
120.689655,6.895967,5.280172
120.689655,7.002835,5.657328
120.689655,7.101034,6.034483
120.689655,7.191241,6.411638
120.689655,7.273853,6.788793
120.689655,7.349093,7.165948
120.689655,7.417078,7.543103
120.689655,7.477869,7.920259
120.689655,7.531493,8.297414
120.689655,7.577963,8.674569
120.689655,7.617281,9.051724
120.689655,7.649450,9.428879
120.689655,7.674471,9.806034
120.689655,7.692343,10.183190
120.689655,7.703066,10.560345
120.689655,7.706640,10.937500

126.724138,0.000000,0.000000
126.724138,1.306826,0.377155
126.724138,2.314832,0.754310
126.724138,3.097131,1.131466
126.724138,3.710166,1.508621
126.724138,4.197083,1.885776
126.724138,4.590510,2.262931
126.724138,4.914840,2.640086
126.724138,5.188079,3.017241
126.724138,5.423338,3.394397
126.724138,5.630021,3.771552
126.724138,5.814764,4.148707
126.724138,5.982163,4.525862
126.724138,6.135341,4.903017
126.724138,6.276369,5.280172
126.724138,6.406589,5.657328
126.724138,6.526842,6.034483
126.724138,6.637643,6.411638
126.724138,6.739293,6.788793
126.724138,6.831960,7.165948
126.724138,6.915735,7.543103
126.724138,6.990662,7.920259
126.724138,7.056763,8.297414
126.724138,7.114047,8.674569
126.724138,7.162516,9.051724
126.724138,7.202173,9.428879
126.724138,7.233017,9.806034
126.724138,7.255049,10.183190
126.724138,7.268268,10.560345
126.724138,7.272674,10.937500

132.758621,0.000000,0.000000
132.758621,1.032299,0.377155
132.758621,1.849766,0.754310
132.758621,2.504024,1.131466
132.758621,3.034924,1.508621
132.758621,3.472932,1.885776
132.758621,3.841084,2.262931
132.758621,4.156603,2.640086
132.758621,4.432203,3.017241
132.758621,4.677142,3.394397
132.758621,4.898058,3.771552
132.758621,5.099638,4.148707
132.758621,5.285128,4.525862
132.758621,5.456730,4.903017
132.758621,5.615909,5.280172
132.758621,5.763610,5.657328
132.758621,5.900429,6.034483
132.758621,6.026729,6.411638
132.758621,6.142723,6.788793
132.758621,6.248528,7.165948
132.758621,6.344210,7.543103
132.758621,6.429799,7.920259
132.758621,6.505311,8.297414
132.758621,6.570752,8.674569
132.758621,6.626124,9.051724
132.758621,6.671429,9.428879
132.758621,6.706666,9.806034
132.758621,6.731835,10.183190
132.758621,6.746936,10.560345
132.758621,6.751970,10.937500

138.793103,0.000000,0.000000
138.793103,0.786561,0.377155
138.793103,1.430353,0.754310
138.793103,1.964662,1.131466
138.793103,2.415186,1.508621
138.793103,2.801569,1.885776
138.793103,3.138665,2.262931
138.793103,3.437580,2.640086
138.793103,3.706512,3.017241
138.793103,3.951430,3.394397
138.793103,4.176616,3.771552
138.793103,4.385090,4.148707
138.793103,4.578946,4.525862
138.793103,4.759605,4.903017
138.793103,4.928009,5.280172
138.793103,5.084770,5.657328
138.793103,5.230272,6.034483
138.793103,5.364747,6.411638
138.793103,5.488334,6.788793
138.793103,5.601109,7.165948
138.793103,5.703113,7.543103
138.793103,5.794366,7.920259
138.793103,5.874879,8.297414
138.793103,5.944654,8.674569
138.793103,6.003695,9.051724
138.793103,6.052001,9.428879
138.793103,6.089572,9.806034
138.793103,6.116408,10.183190
138.793103,6.132510,10.560345
138.793103,6.137877,10.937500

144.827586,0.000000,0.000000
144.827586,0.579405,0.377155
144.827586,1.072631,0.754310
144.827586,1.498710,1.131466
144.827586,1.872334,1.508621
144.827586,2.204734,1.885776
144.827586,2.504405,2.262931
144.827586,2.777694,2.640086
144.827586,3.029291,3.017241
144.827586,3.262607,3.394397
144.827586,3.480090,3.771552
144.827586,3.683468,4.148707
144.827586,3.873938,4.525862
144.827586,4.052312,4.903017
144.827586,4.219129,5.280172
144.827586,4.374738,5.657328
144.827586,4.519360,6.034483
144.827586,4.653127,6.411638
144.827586,4.776117,6.788793
144.827586,4.888376,7.165948
144.827586,4.989926,7.543103
144.827586,5.080779,7.920259
144.827586,5.160940,8.297414
144.827586,5.230412,8.674569
144.827586,5.289196,9.051724
144.827586,5.337292,9.428879
144.827586,5.374699,9.806034
144.827586,5.401419,10.183190
144.827586,5.417451,10.560345
144.827586,5.422795,10.937500

150.862069,0.000000,0.000000
150.862069,0.413822,0.377155
150.862069,0.781367,0.754310
150.862069,1.111815,1.131466
150.862069,1.412250,1.508621
150.862069,1.688089,1.885776
150.862069,1.943429,2.262931
150.862069,2.181330,2.640086
150.862069,2.404054,3.017241
150.862069,2.613246,3.394397
150.862069,2.810087,3.771552
150.862069,2.995410,4.148707
150.862069,3.169792,4.525862
150.862069,3.333624,4.903017
150.862069,3.487168,5.280172
150.862069,3.630591,5.657328
150.862069,3.763999,6.034483
150.862069,3.887457,6.411638
150.862069,4.001001,6.788793
150.862069,4.104655,7.165948
150.862069,4.198428,7.543103
150.862069,4.282327,7.920259
150.862069,4.356354,8.297414
150.862069,4.420510,8.674569
150.862069,4.474796,9.051724
150.862069,4.519211,9.428879
150.862069,4.553757,9.806034
150.862069,4.578432,10.183190
150.862069,4.593237,10.560345
150.862069,4.598172,10.937500

156.896552,0.000000,0.000000
156.896552,0.285509,0.377155
156.896552,0.549246,0.754310
156.896552,0.794608,1.131466
156.896552,1.024217,1.508621
156.896552,1.240079,1.885776
156.896552,1.443710,2.262931
156.896552,1.636243,2.640086
156.896552,1.818514,3.017241
156.896552,1.991134,3.394397
156.896552,2.154538,3.771552
156.896552,2.309036,4.148707
156.896552,2.454841,4.525862
156.896552,2.592097,4.903017
156.896552,2.720902,5.280172
156.896552,2.841317,5.657328
156.896552,2.953382,6.034483
156.896552,3.057121,6.411638
156.896552,3.152547,6.788793
156.896552,3.239669,7.165948
156.896552,3.318490,7.543103
156.896552,3.389013,7.920259
156.896552,3.451239,8.297414
156.896552,3.505167,8.674569
156.896552,3.550799,9.051724
156.896552,3.588134,9.428879
156.896552,3.617173,9.806034
156.896552,3.637914,10.183190
156.896552,3.650360,10.560345
156.896552,3.654508,10.937500

162.931034,0.000000,0.000000
162.931034,0.183643,0.377155
162.931034,0.358141,0.754310
162.931034,0.524277,1.131466
162.931034,0.682651,1.508621
162.931034,0.833726,1.885776
162.931034,0.977848,2.262931
162.931034,1.115278,2.640086
162.931034,1.246209,3.017241
162.931034,1.370780,3.394397
162.931034,1.489092,3.771552
162.931034,1.601216,4.148707
162.931034,1.707200,4.525862
162.931034,1.807079,4.903017
162.931034,1.900874,5.280172
162.931034,1.988599,5.657328
162.931034,2.070263,6.034483
162.931034,2.145873,6.411638
162.931034,2.215431,6.788793
162.931034,2.278939,7.165948
162.931034,2.336397,7.543103
162.931034,2.387807,7.920259
162.931034,2.433169,8.297414
162.931034,2.472482,8.674569
162.931034,2.505748,9.051724
162.931034,2.532965,9.428879
162.931034,2.554133,9.806034
162.931034,2.569254,10.183190
162.931034,2.578326,10.560345
162.931034,2.581350,10.937500

168.965517,0.000000,0.000000
168.965517,0.093299,0.377155
168.965517,0.183128,0.754310
168.965517,0.269546,1.131466
168.965517,0.352594,1.508621
168.965517,0.432307,1.885776
168.965517,0.508710,2.262931
168.965517,0.581821,2.640086
168.965517,0.651654,3.017241
168.965517,0.718220,3.394397
168.965517,0.781526,3.771552
168.965517,0.841576,4.148707
168.965517,0.898374,4.525862
168.965517,0.951924,4.903017
168.965517,1.002226,5.280172
168.965517,1.049281,5.657328
168.965517,1.093090,6.034483
168.965517,1.133654,6.411638
168.965517,1.170972,6.788793
168.965517,1.205045,7.165948
168.965517,1.235873,7.543103
168.965517,1.263456,7.920259
168.965517,1.287794,8.297414
168.965517,1.308887,8.674569
168.965517,1.326735,9.051724
168.965517,1.341338,9.428879
168.965517,1.352695,9.806034
168.965517,1.360808,10.183190
168.965517,1.365676,10.560345
168.965517,1.367298,10.937500

