
0.479334,0.000000,0.000000
0.479334,0.011737,0.575658
0.479334,0.022840,1.151316
0.479334,0.033308,1.726974
0.479334,0.043142,2.302632
0.479334,0.052341,2.878289
0.479334,0.060906,3.453947
0.479334,0.068837,4.029605
0.479334,0.076133,4.605263
0.479334,0.082794,5.180921
0.479334,0.088821,5.756579
0.479334,0.094214,6.332237
0.479334,0.098972,6.907895
0.479334,0.103096,7.483553
0.479334,0.106586,8.059211
0.479334,0.109441,8.634868
0.479334,0.111661,9.210526
0.479334,0.113247,9.786184
0.479334,0.114199,10.361842
0.479334,0.114516,10.937500

1.912085,0.000000,0.000000
1.912085,0.046195,0.575658
1.912085,0.089888,1.151316
1.912085,0.131082,1.726974
1.912085,0.169777,2.302632
1.912085,0.205976,2.878289
1.912085,0.239677,3.453947
1.912085,0.270881,4.029605
1.912085,0.299589,4.605263
1.912085,0.325800,5.180921
1.912085,0.349515,5.756579
1.912085,0.370734,6.332237
1.912085,0.389456,6.907895
1.912085,0.405683,7.483553
1.912085,0.419412,8.059211
1.912085,0.430646,8.634868
1.912085,0.439383,9.210526
1.912085,0.445624,9.786184
1.912085,0.449368,10.361842
1.912085,0.450616,10.937500

4.282555,0.000000,0.000000
4.282555,0.101360,0.575658
4.282555,0.197137,1.151316
4.282555,0.287377,1.726974
4.282555,0.372107,2.302632
4.282555,0.451347,2.878289
4.282555,0.525108,3.453947
4.282555,0.593398,4.029605
4.282555,0.656221,4.605263
4.282555,0.713579,5.180921
4.282555,0.765473,5.756579
4.282555,0.811904,6.332237
4.282555,0.852873,6.907895
4.282555,0.888379,7.483553
4.282555,0.918422,8.059211
4.282555,0.943003,8.634868
4.282555,0.962122,9.210526
4.282555,0.975778,9.786184
4.282555,0.983972,10.361842
4.282555,0.986703,10.937500

7.564772,0.000000,0.000000
7.564772,0.175194,0.575658
7.564772,0.339990,1.151316
7.564772,0.494782,1.726974
7.564772,0.639831,2.302632
7.564772,0.775307,2.878289
7.564772,0.901316,3.453947
7.564772,1.017921,4.029605
7.564772,1.125162,4.605263
7.564772,1.223060,5.180921
7.564772,1.311626,5.756579
7.564772,1.390865,6.332237
7.564772,1.460781,6.907895
7.564772,1.521374,7.483553
7.564772,1.572645,8.059211
7.564772,1.614593,8.634868
7.564772,1.647220,9.210526
7.564772,1.670525,9.786184
7.564772,1.684508,10.361842
7.564772,1.689169,10.937500

11.722777,0.000000,0.000000
11.722777,0.268606,0.575658
11.722777,0.517855,1.151316
11.722777,0.749800,1.726974
11.722777,0.965803,2.302632
11.722777,1.166746,2.878289
11.722777,1.353183,3.453947
11.722777,1.525451,4.029605
11.722777,1.683749,4.605263
11.722777,1.828188,5.180921
11.722777,1.958827,5.756579
11.722777,2.075695,6.332237
11.722777,2.178807,6.907895
11.722777,2.268168,7.483553
11.722777,2.343780,8.059211
11.722777,2.405644,8.634868
11.722777,2.453761,9.210526
11.722777,2.488130,9.786184
11.722777,2.508751,10.361842
11.722777,2.515625,10.937500

16.711013,0.000000,0.000000
16.711013,0.389690,0.575658
16.711013,0.740672,1.151316
16.711013,1.060430,1.726974
16.711013,1.353935,2.302632
16.711013,1.624403,2.878289
16.711013,1.873855,3.453947
16.711013,2.103522,4.029605
16.711013,2.314128,4.605263
16.711013,2.506075,5.180921
16.711013,2.679582,5.756579
16.711013,2.834755,6.332237
16.711013,2.971645,6.907895
16.711013,3.090274,7.483553
16.711013,3.190649,8.059211
16.711013,3.272774,8.634868
16.711013,3.336649,9.210526
16.711013,3.382273,9.786184
16.711013,3.409648,10.361842
16.711013,3.418773,10.937500

22.474828,0.000000,0.000000
22.474828,0.556705,0.575658
22.474828,1.033552,1.151316
22.474828,1.451654,1.726974
22.474828,1.825027,2.302632
22.474828,2.162741,2.878289
22.474828,2.470501,3.453947
22.474828,2.751779,4.029605
22.474828,3.008612,4.605263
22.474828,3.242142,5.180921
22.474828,3.452977,5.756579
22.474828,3.641423,6.332237
22.474828,3.807622,6.907895
22.474828,3.951635,7.483553
22.474828,4.073484,8.059211
22.474828,4.173177,8.634868
22.474828,4.250715,9.210526
22.474828,4.306100,9.786184
22.474828,4.339331,10.361842
22.474828,4.350408,10.937500

28.951072,0.000000,0.000000
28.951072,0.796145,0.575658
28.951072,1.434059,1.151316
28.951072,1.962615,1.726974
28.951072,2.414255,2.302632
28.951072,2.809975,2.878289
28.951072,3.162981,3.453947
28.951072,3.481310,4.029605
28.951072,3.769673,4.605263
28.951072,4.030717,5.180921
28.951072,4.265849,5.756579
28.951072,4.475777,6.332237
28.951072,4.660830,6.907895
28.951072,4.821148,7.483553
28.951072,4.956784,8.059211
28.951072,5.067754,8.634868
28.951072,5.154063,9.210526
28.951072,5.215712,9.786184
28.951072,5.252702,10.361842
28.951072,5.265032,10.937500

36.068790,0.000000,0.000000
36.068790,1.133574,0.575658
36.068790,1.978620,1.151316
36.068790,2.631553,1.726974
36.068790,3.156372,2.302632
36.068790,3.594498,2.878289
36.068790,3.971982,3.453947
36.068790,4.304679,4.029605
36.068790,4.601886,4.605263
36.068790,4.868819,5.180921
36.068790,5.108259,5.756579
36.068790,5.321601,6.332237
36.068790,5.509493,6.907895
36.068790,5.672212,7.483553
36.068790,5.809861,8.059211
36.068790,5.922474,8.634868
36.068790,6.010061,9.210526
36.068790,6.072622,9.786184
36.068790,6.110159,10.361842
36.068790,6.122672,10.937500

43.750000,0.000000,0.000000
43.750000,1.578752,0.575658
43.750000,2.680339,1.151316
43.750000,3.470997,1.726974
43.750000,4.061074,2.302632
43.750000,4.521987,2.878289
43.750000,4.898651,3.453947
43.750000,5.218405,4.029605
43.750000,5.497277,4.605263
43.750000,5.744262,5.180921
43.750000,5.964154,5.756579
43.750000,6.159358,6.332237
43.750000,6.330992,6.907895
43.750000,6.479533,7.483553
43.750000,6.605159,8.059211
43.750000,6.707929,8.634868
43.750000,6.787859,9.210526
43.750000,6.844951,9.786184
43.750000,6.879207,10.361842
43.750000,6.890625,10.937500

51.910544,0.000000,0.000000
51.910544,2.110940,0.575658
51.910544,3.507029,1.151316
51.910544,4.443139,1.726974
51.910544,5.088455,2.302632
51.910544,5.552471,2.878289
51.910544,5.904052,3.453947
51.910544,6.185115,4.029605
51.910544,6.420232,4.605263
51.910544,6.623194,5.180921
51.910544,6.801353,5.756579
51.910544,6.958394,6.332237
51.910544,7.096034,6.907895
51.910544,7.215000,7.483553
51.910544,7.315569,8.059211
51.910544,7.397830,8.634868
51.910544,7.461807,9.210526
51.910544,7.507504,9.786184
51.910544,7.534923,10.361842
51.910544,7.544062,10.937500

60.461013,0.000000,0.000000
60.461013,2.672433,0.575658
60.461013,4.371515,1.151316
60.461013,5.448911,1.726974
60.461013,6.138058,2.302632
60.461013,6.590036,2.878289
60.461013,6.899862,3.453947
60.461013,7.125372,4.029605
60.461013,7.300471,4.605263
60.461013,7.444186,5.180921
60.461013,7.566662,5.756579
60.461013,7.672984,6.332237
60.461013,7.765519,6.907895
60.461013,7.845273,7.483553
60.461013,7.912627,8.059211
60.461013,7.967703,8.634868
60.461013,8.010534,9.210526
60.461013,8.041127,9.786184
60.461013,8.059483,10.361842
60.461013,8.065602,10.937500

69.307727,0.000000,0.000000
69.307727,3.176258,0.575658
69.307727,5.143097,1.151316
69.307727,6.340780,1.726974
69.307727,7.061560,2.302632
69.307727,7.494579,2.878289
69.307727,7.758792,3.453947
69.307727,7.926606,4.029605
69.307727,8.040470,4.605263
69.307727,8.124205,5.180921
69.307727,8.190510,5.756579
69.307727,8.245751,6.332237
69.307727,8.292894,6.907895
69.307727,8.333196,7.483553
69.307727,8.367134,8.059211
69.307727,8.394862,8.634868
69.307727,8.416421,9.210526
69.307727,8.431820,9.786184
69.307727,8.441059,10.361842
69.307727,8.444139,10.937500

78.353759,0.000000,0.000000
78.353759,3.527961,0.575658
78.353759,5.680097,1.151316
78.353759,6.959206,1.726974
78.353759,7.699048,2.302632
78.353759,8.115633,2.878289
78.353759,8.344810,3.453947
78.353759,8.469272,4.029605
78.353759,8.537495,4.605263
78.353759,8.576685,5.180921
78.353759,8.601344,5.756579
78.353759,8.618744,6.332237
78.353759,8.632269,6.907895
78.353759,8.643358,7.483553
78.353759,8.652553,8.059211
78.353759,8.660032,8.634868
78.353759,8.665841,9.210526
78.353759,8.669989,9.786184
78.353759,8.672478,10.361842
78.353759,8.673308,10.937500

87.500000,0.000000,0.000000
87.500000,3.654379,0.575658
87.500000,5.872858,1.151316
87.500000,7.180823,1.726974
87.500000,7.927029,2.302632
87.500000,8.337188,2.878289
87.500000,8.553254,3.453947
87.500000,8.661634,4.029605
87.500000,8.712983,4.605263
87.500000,8.735728,5.180921
87.500000,8.745024,5.756579
87.500000,8.748468,6.332237
87.500000,8.749597,6.907895
87.500000,8.749914,7.483553
87.500000,8.749986,8.059211
87.500000,8.749999,8.634868
87.500000,8.750000,9.210526
87.500000,8.750000,9.786184
87.500000,8.750000,10.361842
87.500000,8.750000,10.937500

96.646241,0.000000,0.000000
96.646241,3.527961,0.575658
96.646241,5.680097,1.151316
96.646241,6.959206,1.726974
96.646241,7.699048,2.302632
96.646241,8.115633,2.878289
96.646241,8.344810,3.453947
96.646241,8.469272,4.029605
96.646241,8.537495,4.605263
96.646241,8.576685,5.180921
96.646241,8.601344,5.756579
96.646241,8.618744,6.332237
96.646241,8.632269,6.907895
96.646241,8.643358,7.483553
96.646241,8.652553,8.059211
96.646241,8.660032,8.634868
96.646241,8.665841,9.210526
96.646241,8.669989,9.786184
96.646241,8.672478,10.361842
96.646241,8.673308,10.937500

105.692273,0.000000,0.000000
105.692273,3.176258,0.575658
105.692273,5.143097,1.151316
105.692273,6.340780,1.726974
105.692273,7.061560,2.302632
105.692273,7.494579,2.878289
105.692273,7.758792,3.453947
105.692273,7.926606,4.029605
105.692273,8.040470,4.605263
105.692273,8.124205,5.180921
105.692273,8.190510,5.756579
105.692273,8.245751,6.332237
105.692273,8.292894,6.907895
105.692273,8.333196,7.483553
105.692273,8.367134,8.059211
105.692273,8.394862,8.634868
105.692273,8.416421,9.210526
105.692273,8.431820,9.786184
105.692273,8.441059,10.361842
105.692273,8.444139,10.937500

114.538987,0.000000,0.000000
114.538987,2.672433,0.575658
114.538987,4.371515,1.151316
114.538987,5.448911,1.726974
114.538987,6.138058,2.302632
114.538987,6.590036,2.878289
114.538987,6.899862,3.453947
114.538987,7.125372,4.029605
114.538987,7.300471,4.605263
114.538987,7.444186,5.180921
114.538987,7.566662,5.756579
114.538987,7.672984,6.332237
114.538987,7.765519,6.907895
114.538987,7.845273,7.483553
114.538987,7.912627,8.059211
114.538987,7.967703,8.634868
114.538987,8.010534,9.210526
114.538987,8.041127,9.786184
114.538987,8.059483,10.361842
114.538987,8.065602,10.937500

123.089456,0.000000,0.000000
123.089456,2.110940,0.575658
123.089456,3.507029,1.151316
123.089456,4.443139,1.726974
123.089456,5.088455,2.302632
123.089456,5.552471,2.878289
123.089456,5.904052,3.453947
123.089456,6.185115,4.029605
123.089456,6.420232,4.605263
123.089456,6.623194,5.180921
123.089456,6.801353,5.756579
123.089456,6.958394,6.332237
123.089456,7.096034,6.907895
123.089456,7.215000,7.483553
123.089456,7.315569,8.059211
123.089456,7.397830,8.634868
123.089456,7.461807,9.210526
123.089456,7.507504,9.786184
123.089456,7.534923,10.361842
123.089456,7.544062,10.937500

131.250000,0.000000,0.000000
131.250000,1.578752,0.575658
131.250000,2.680339,1.151316
131.250000,3.470997,1.726974
131.250000,4.061074,2.302632
131.250000,4.521987,2.878289
131.250000,4.898651,3.453947
131.250000,5.218405,4.029605
131.250000,5.497277,4.605263
131.250000,5.744262,5.180921
131.250000,5.964154,5.756579
131.250000,6.159358,6.332237
131.250000,6.330992,6.907895
131.250000,6.479533,7.483553
131.250000,6.605159,8.059211
131.250000,6.707929,8.634868
131.250000,6.787859,9.210526
131.250000,6.844951,9.786184
131.250000,6.879207,10.361842
131.250000,6.890625,10.937500

138.931210,0.000000,0.000000
138.931210,1.133574,0.575658
138.931210,1.978620,1.151316
138.931210,2.631553,1.726974
138.931210,3.156372,2.302632
138.931210,3.594498,2.878289
138.931210,3.971982,3.453947
138.931210,4.304679,4.029605
138.931210,4.601886,4.605263
138.931210,4.868819,5.180921
138.931210,5.108259,5.756579
138.931210,5.321601,6.332237
138.931210,5.509493,6.907895
138.931210,5.672212,7.483553
138.931210,5.809861,8.059211
138.931210,5.922474,8.634868
138.931210,6.010061,9.210526
138.931210,6.072622,9.786184
138.931210,6.110159,10.361842
138.931210,6.122672,10.937500

146.048928,0.000000,0.000000
146.048928,0.796145,0.575658
146.048928,1.434059,1.151316
146.048928,1.962615,1.726974
146.048928,2.414255,2.302632
146.048928,2.809975,2.878289
146.048928,3.162981,3.453947
146.048928,3.481310,4.029605
146.048928,3.769673,4.605263
146.048928,4.030717,5.180921
146.048928,4.265849,5.756579
146.048928,4.475777,6.332237
146.048928,4.660830,6.907895
146.048928,4.821148,7.483553
146.048928,4.956784,8.059211
146.048928,5.067754,8.634868
146.048928,5.154063,9.210526
146.048928,5.215712,9.786184
146.048928,5.252702,10.361842
146.048928,5.265032,10.937500

152.525172,0.000000,0.000000
152.525172,0.556705,0.575658
152.525172,1.033552,1.151316
152.525172,1.451654,1.726974
152.525172,1.825027,2.302632
152.525172,2.162741,2.878289
152.525172,2.470501,3.453947
152.525172,2.751779,4.029605
152.525172,3.008612,4.605263
152.525172,3.242142,5.180921
152.525172,3.452977,5.756579
152.525172,3.641423,6.332237
152.525172,3.807622,6.907895
152.525172,3.951635,7.483553
152.525172,4.073484,8.059211
152.525172,4.173177,8.634868
152.525172,4.250715,9.210526
152.525172,4.306100,9.786184
152.525172,4.339331,10.361842
152.525172,4.350408,10.937500

158.288987,0.000000,0.000000
158.288987,0.389690,0.575658
158.288987,0.740672,1.151316
158.288987,1.060430,1.726974
158.288987,1.353935,2.302632
158.288987,1.624403,2.878289
158.288987,1.873855,3.453947
158.288987,2.103522,4.029605
158.288987,2.314128,4.605263
158.288987,2.506075,5.180921
158.288987,2.679582,5.756579
158.288987,2.834755,6.332237
158.288987,2.971645,6.907895
158.288987,3.090274,7.483553
158.288987,3.190649,8.059211
158.288987,3.272774,8.634868
158.288987,3.336649,9.210526
158.288987,3.382273,9.786184
158.288987,3.409648,10.361842
158.288987,3.418773,10.937500

163.277223,0.000000,0.000000
163.277223,0.268606,0.575658
163.277223,0.517855,1.151316
163.277223,0.749800,1.726974
163.277223,0.965803,2.302632
163.277223,1.166746,2.878289
163.277223,1.353183,3.453947
163.277223,1.525451,4.029605
163.277223,1.683749,4.605263
163.277223,1.828188,5.180921
163.277223,1.958827,5.756579
163.277223,2.075695,6.332237
163.277223,2.178807,6.907895
163.277223,2.268168,7.483553
163.277223,2.343780,8.059211
163.277223,2.405644,8.634868
163.277223,2.453761,9.210526
163.277223,2.488130,9.786184
163.277223,2.508751,10.361842
163.277223,2.515625,10.937500

167.435228,0.000000,0.000000
167.435228,0.175194,0.575658
167.435228,0.339990,1.151316
167.435228,0.494782,1.726974
167.435228,0.639831,2.302632
167.435228,0.775307,2.878289
167.435228,0.901316,3.453947
167.435228,1.017921,4.029605
167.435228,1.125162,4.605263
167.435228,1.223060,5.180921
167.435228,1.311626,5.756579
167.435228,1.390865,6.332237
167.435228,1.460781,6.907895
167.435228,1.521374,7.483553
167.435228,1.572645,8.059211
167.435228,1.614593,8.634868
167.435228,1.647220,9.210526
167.435228,1.670525,9.786184
167.435228,1.684508,10.361842
167.435228,1.689169,10.937500

170.717445,0.000000,0.000000
170.717445,0.101360,0.575658
170.717445,0.197137,1.151316
170.717445,0.287377,1.726974
170.717445,0.372107,2.302632
170.717445,0.451347,2.878289
170.717445,0.525108,3.453947
170.717445,0.593398,4.029605
170.717445,0.656221,4.605263
170.717445,0.713579,5.180921
170.717445,0.765473,5.756579
170.717445,0.811904,6.332237
170.717445,0.852873,6.907895
170.717445,0.888379,7.483553
170.717445,0.918422,8.059211
170.717445,0.943003,8.634868
170.717445,0.962122,9.210526
170.717445,0.975778,9.786184
170.717445,0.983972,10.361842
170.717445,0.986703,10.937500

173.087915,0.000000,0.000000
173.087915,0.046195,0.575658
173.087915,0.089888,1.151316
173.087915,0.131082,1.726974
173.087915,0.169777,2.302632
173.087915,0.205976,2.878289
173.087915,0.239677,3.453947
173.087915,0.270881,4.029605
173.087915,0.299589,4.605263
173.087915,0.325800,5.180921
173.087915,0.349515,5.756579
173.087915,0.370734,6.332237
173.087915,0.389456,6.907895
173.087915,0.405683,7.483553
173.087915,0.419412,8.059211
173.087915,0.430646,8.634868
173.087915,0.439383,9.210526
173.087915,0.445624,9.786184
173.087915,0.449368,10.361842
173.087915,0.450616,10.937500

174.520666,0.000000,0.000000
174.520666,0.011737,0.575658
174.520666,0.022840,1.151316
174.520666,0.033308,1.726974
174.520666,0.043142,2.302632
174.520666,0.052341,2.878289
174.520666,0.060906,3.453947
174.520666,0.068837,4.029605
174.520666,0.076133,4.605263
174.520666,0.082794,5.180921
174.520666,0.088821,5.756579
174.520666,0.094214,6.332237
174.520666,0.098972,6.907895
174.520666,0.103096,7.483553
174.520666,0.106586,8.059211
174.520666,0.109441,8.634868
174.520666,0.111661,9.210526
174.520666,0.113247,9.786184
174.520666,0.114199,10.361842
174.520666,0.114516,10.937500


